<?xml version="1.0" standalone="no"?>
<!DOCTYPE svg PUBLIC "-//W3C//DTD SVG 1.1//EN" "http://www.w3.org/Graphics/SVG/1.1/DTD/svg11.dtd" >
<svg>
<metadata>
Created by FontForge 20090622 at Tue Apr 28 12:28:59 2015
 By deploy user
&#194;&#169; 1988, 1990, 1993, 2002 Adobe Systems Incorporated. All rights reserved.
</metadata>
<defs>
<font id="HelveticaNeueLTStd-Roman" horiz-adv-x="556" >
  <font-face 
    font-family="HelveticaNeueLT Std"
    font-weight="400"
    font-stretch="normal"
    units-per-em="1000"
    panose-1="2 11 6 4 2 2 2 2 2 4"
    ascent="714"
    descent="-286"
    x-height="517"
    cap-height="714"
    bbox="-166 -214 1076 952"
    underline-thickness="50"
    underline-position="-50"
    unicode-range="U+0020-U+FB02"
  />
<missing-glyph horiz-adv-x="500" 
d="M0 0v700h500v-700h-500zM250 395l170 255h-340zM280 350l170 -255v510zM80 50h340l-170 255zM50 605v-510l170 255z" />
    <glyph glyph-name="f_i" unicode="fi" horiz-adv-x="518" 
d="M99 0v442h-87v75h87v77q0 63 36.5 95.5t106.5 32.5q29 0 55 -8v-74q-21 7 -48 7q-33 0 -49 -13t-16 -45v-72h100v-75h-100v-442h-85zM450 610h-85v104h85v-104zM450 0h-85v517h85v-517z" />
    <glyph glyph-name="f_l" unicode="fl" horiz-adv-x="518" 
d="M99 0v442h-87v75h87v77q0 63 36.5 95.5t106.5 32.5q29 0 55 -8v-74q-21 7 -48 7q-33 0 -49 -13t-16 -45v-72h100v-75h-100v-442h-85zM365 0v714h85v-714h-85z" />
    <glyph glyph-name=".notdef" horiz-adv-x="500" 
d="M0 0v700h500v-700h-500zM250 395l170 255h-340zM280 350l170 -255v510zM80 50h340l-170 255zM50 605v-510l170 255z" />
    <glyph glyph-name=".null" horiz-adv-x="0" 
 />
    <glyph glyph-name="nonmarkingreturn" horiz-adv-x="333" 
 />
    <glyph glyph-name="space" unicode=" " horiz-adv-x="278" 
 />
    <glyph glyph-name="exclam" unicode="!" horiz-adv-x="259" 
d="M177 714v-220l-25 -311h-45l-25 311v220h95zM74 0v111h111v-111h-111z" />
    <glyph glyph-name="quotedbl" unicode="&#x22;" horiz-adv-x="426" 
d="M109 456v258h68v-258h-68zM249 456v258h68v-258h-68z" />
    <glyph glyph-name="numbersign" unicode="#" 
d="M102 0l29 206h-97v68h107l21 150h-102v68h111l29 205h69l-29 -205h124l29 205h69l-29 -205h89v-68h-98l-21 -150h91v-68h-101l-29 -206h-69l29 206h-124l-29 -206h-69zM355 424h-124l-21 -150h124z" />
    <glyph glyph-name="dollar" unicode="$" 
d="M251 417v234q-51 -6 -83 -36.5t-32 -84.5q0 -49 28 -72t87 -41zM306 314v-251q129 10 129 128q0 52 -32.5 78.5t-96.5 44.5zM25 218h85q2 -65 40.5 -105t100.5 -50v265q-111 27 -158 68t-47 125q0 89 58.5 147t146.5 63v66h55v-67q156 -19 197 -198h-85q-20 99 -112 116
v-246l60 -16q23 -6 47 -18t51 -33t44 -56.5t17 -78.5q0 -94 -60.5 -151.5t-158.5 -65.5v-82h-55v82q-99 10 -158.5 71t-67.5 164z" />
    <glyph glyph-name="percent" unicode="%" horiz-adv-x="1000" 
d="M586 186q0 90 38 146.5t124 56.5q160 0 160 -200q0 -86 -39.5 -143.5t-120.5 -57.5q-85 0 -123.5 54.5t-38.5 143.5zM661 188q0 -145 84 -145q88 0 88 146q0 145 -85 145q-87 0 -87 -146zM92 506q0 90 38 146.5t124 56.5q160 0 160 -200q0 -86 -39.5 -143.5t-120.5 -57.5
q-85 0 -123.5 54.5t-38.5 143.5zM167 508q0 -145 84 -145q88 0 88 146q0 145 -85 145q-87 0 -87 -146zM188 -22l538 744h85l-537 -744h-86z" />
    <glyph glyph-name="ampersand" unicode="&#x26;" horiz-adv-x="630" 
d="M411 148l-164 197q-62 -35 -93 -69t-31 -92q0 -52 41 -86.5t95 -34.5q95 0 152 85zM534 0l-76 89q-31 -49 -86 -75t-116 -26q-68 0 -115.5 21.5t-69 55t-30 62.5t-8.5 56q0 77 43 125.5t124 90.5q-6 9 -23 31.5t-23 32.5t-16 28.5t-13.5 36.5t-3.5 39q0 61 43.5 104
t117.5 43q72 0 122.5 -38.5t50.5 -107.5q0 -109 -134 -185l129 -157q20 54 23 111h81q-5 -60 -14.5 -92.5t-33.5 -83.5l139 -161h-111zM275 439q27 17 44.5 31t34 39.5t16.5 53.5q0 32 -22.5 54t-59.5 22q-33 0 -57.5 -19.5t-24.5 -56.5q0 -9 2 -18t7 -19t8 -17t12 -19
l12.5 -16.5l14.5 -18t13 -16.5z" />
    <glyph glyph-name="quotesingle" unicode="'" horiz-adv-x="278" 
d="M105 456v258h68v-258h-68z" />
    <glyph glyph-name="parenleft" unicode="(" horiz-adv-x="259" 
d="M269 -198h-65q-78 121 -117.5 232.5t-39.5 235.5q0 118 40.5 239t116.5 222h65q-132 -208 -132 -461q0 -255 132 -468z" />
    <glyph glyph-name="parenright" unicode=")" horiz-adv-x="259" 
d="M55 -198h-65q132 208 132 461q0 255 -132 468h65q78 -121 117.5 -232.5t39.5 -235.5q0 -118 -40.5 -239t-116.5 -222z" />
    <glyph glyph-name="asterisk" unicode="*" horiz-adv-x="352" 
d="M201 714v-113l107 40l20 -48l-109 -38l66 -91l-41 -31l-69 96l-65 -96l-45 31l65 91l-106 38l18 48l106 -40v113h53z" />
    <glyph glyph-name="plus" unicode="+" horiz-adv-x="600" 
d="M334 506v-219h218v-68h-218v-219h-68v219h-218v68h218v219h68z" />
    <glyph glyph-name="comma" unicode="," horiz-adv-x="278" 
d="M83 0v111h111v-101q0 -126 -110 -157v50q31 10 45.5 39.5t12.5 57.5h-59z" />
    <glyph glyph-name="hyphen" unicode="-" horiz-adv-x="389" 
d="M50 238v80h289v-80h-289z" />
    <glyph glyph-name="period" unicode="." horiz-adv-x="278" 
d="M83 0v111h111v-111h-111z" />
    <glyph glyph-name="slash" unicode="/" horiz-adv-x="333" 
d="M-18 -17l296 748h73l-296 -748h-73z" />
    <glyph glyph-name="zero" unicode="0" 
d="M42 348q0 58 3 99t16.5 94.5t37.5 87t69.5 57t109.5 23.5t109.5 -23.5t69.5 -57t37.5 -87t16.5 -94.5t3 -99q0 -57 -3 -98.5t-16.5 -94.5t-37.5 -86.5t-69.5 -57t-109.5 -23.5t-109.5 23.5t-69.5 57t-37.5 86.5t-16.5 94.5t-3 98.5zM132 349q0 -37 1 -59t4.5 -61
t13 -63.5t25 -50.5t41.5 -39t61 -13t61 13t41.5 39t25 50.5t13 63.5t4.5 61t1 59q0 36 -1 58.5t-4.5 61t-13 63.5t-25 50.5t-41.5 38.5t-61 13t-61 -13t-41.5 -38.5t-25 -50.5t-13 -63.5t-4.5 -61t-1 -58.5z" />
    <glyph glyph-name="one" unicode="1" 
d="M356 709v-709h-85v508h-184v68q180 0 204 133h65z" />
    <glyph glyph-name="two" unicode="2" 
d="M129 458h-85q-5 110 56.5 180.5t171.5 70.5q97 0 159.5 -54t62.5 -150q0 -84 -45 -138t-127 -105q-8 -5 -37 -22t-39.5 -24l-33 -22t-33 -26l-24.5 -26.5t-21 -32t-11 -34.5h364v-75h-463q5 60 21.5 106t47 80t57.5 55t73 49q102 63 141.5 105.5t39.5 110.5
q0 57 -39.5 92.5t-97.5 35.5q-69 0 -104.5 -52.5t-33.5 -123.5z" />
    <glyph glyph-name="three" unicode="3" 
d="M218 333v72q13 -1 37 -1q57 0 96 30.5t39 85.5q0 54 -35 84t-91 30q-66 0 -99.5 -43.5t-34.5 -110.5h-85q4 105 60 167t159 62q97 0 156.5 -48t59.5 -142q0 -45 -28 -83t-70 -58v-2q63 -14 95.5 -60t32.5 -112q0 -102 -69.5 -159t-174.5 -57q-109 0 -173.5 61.5
t-62.5 169.5h85q2 -71 41 -113.5t110 -42.5q65 0 109.5 37.5t44.5 99.5q0 64 -42.5 100t-108.5 36q-27 0 -51 -3z" />
    <glyph glyph-name="four" unicode="4" 
d="M419 709v-468h96v-75h-96v-166h-80v166h-311v82l323 461h68zM101 241h238v347h-2z" />
    <glyph glyph-name="five" unicode="5" 
d="M470 697v-75h-286l-38 -204l2 -2q45 51 132 51q100 0 164.5 -63t64.5 -180q0 -97 -65.5 -166.5t-182.5 -69.5q-95 0 -159.5 55t-66.5 148h85q4 -56 45 -92t104 -36q64 0 107 43.5t43 124.5q0 71 -44.5 116t-115.5 45q-77 0 -132 -67l-73 4l66 368h350z" />
    <glyph glyph-name="six" unicode="6" 
d="M286 381q-69 0 -108 -45.5t-39 -114.5q0 -68 39.5 -113t107.5 -45q66 0 104.5 45.5t38.5 111.5q0 70 -36.5 115.5t-106.5 45.5zM499 528h-85q-6 49 -37.5 77.5t-81.5 28.5q-162 0 -172 -269l2 -2q57 93 177 93q100 0 158.5 -64.5t58.5 -165.5q0 -42 -12.5 -81.5
t-38.5 -76t-74 -58.5t-112 -22q-244 0 -244 341q0 78 13 142.5t41.5 120t81 86.5t125.5 31q88 0 140.5 -47.5t59.5 -133.5z" />
    <glyph glyph-name="seven" unicode="7" 
d="M509 697v-73q-108 -107 -185 -283t-87 -341h-95q12 173 87 332.5t193 284.5h-372v80h459z" />
    <glyph glyph-name="eight" unicode="8" 
d="M130 200q0 -63 42 -100t109 -37q63 0 104 39t41 99q0 57 -42.5 96t-103.5 39q-64 0 -107 -38t-43 -98zM65 528q0 84 61 132.5t147 48.5q108 0 161.5 -53t53.5 -128q0 -47 -27 -87t-71 -60q126 -40 126 -177q0 -100 -66.5 -158t-168.5 -58q-107 0 -174 55.5t-67 160.5
q0 63 32.5 109.5t91.5 67.5q-44 18 -71.5 58.5t-27.5 88.5zM155 525q0 -56 35 -85t91 -29q52 0 84.5 30.5t32.5 83.5q0 52 -33 80.5t-86 28.5t-88.5 -29t-35.5 -80z" />
    <glyph glyph-name="nine" unicode="9" 
d="M409 472q0 69 -39 115.5t-107 46.5q-71 0 -105 -48t-34 -120q0 -60 40 -105t100 -45q65 0 105 45.5t40 110.5zM49 171h85q4 -50 40.5 -79t89.5 -29q153 0 160 274l-2 2q-24 -45 -68 -71.5t-96 -26.5q-106 0 -165 65t-59 172q0 103 65 167t168 64q243 0 243 -339
q0 -382 -246 -382q-92 0 -149.5 47t-65.5 136z" />
    <glyph glyph-name="colon" unicode=":" horiz-adv-x="278" 
d="M83 0v111h111v-111h-111zM194 517v-111h-111v111h111z" />
    <glyph glyph-name="semicolon" unicode=";" horiz-adv-x="278" 
d="M83 0v111h111v-101q1 -58 -26.5 -99.5t-83.5 -57.5v50q31 10 45.5 39.5t12.5 57.5h-59zM194 517v-111h-111v111h111z" />
    <glyph glyph-name="less" unicode="&#x3c;" horiz-adv-x="600" 
d="M554 514v-68l-425 -193l425 -193v-68l-508 230v62z" />
    <glyph glyph-name="equal" unicode="=" horiz-adv-x="600" 
d="M552 388v-68h-504v68h504zM48 118v68h504v-68h-504z" />
    <glyph glyph-name="greater" unicode="&#x3e;" horiz-adv-x="600" 
d="M46 -8v68l425 193l-425 193v68l508 -230v-62z" />
    <glyph glyph-name="question" unicode="?" 
d="M140 491h-85q-2 105 59.5 172.5t164.5 67.5q94 0 152.5 -53.5t58.5 -146.5q0 -38 -13.5 -71.5t-29.5 -53t-43 -45.5q-31 -29 -44 -43t-28 -43.5t-15 -61.5v-39h-85v47q0 24 6.5 46.5t12.5 35.5t23.5 34t22 25.5l25.5 25.5q47 47 60 71q21 36 18 80q-4 55 -36 86t-85 31
q-68 0 -104 -46t-35 -119zM218 0v111h111v-111h-111z" />
    <glyph glyph-name="at" unicode="@" horiz-adv-x="800" 
d="M420 505q-66 0 -113 -68.5t-47 -140.5q0 -42 24.5 -69.5t61.5 -27.5q61 0 108 72.5t47 140.5q0 36 -25 64.5t-56 28.5zM618 554l-84 -284q-11 -37 -11 -51q0 -31 24 -31q46 0 92 75.5t46 154.5q0 114 -80.5 186t-190.5 72q-127 0 -215.5 -94.5t-88.5 -226.5
q0 -133 91 -225t218 -92q71 0 138.5 33t109.5 88h63q-48 -82 -132 -129t-181 -47q-158 0 -266.5 109.5t-108.5 267.5q0 154 109 262.5t262 108.5q141 0 240.5 -87.5t99.5 -220.5q0 -62 -23 -118t-58.5 -92.5t-76 -58t-76.5 -21.5q-27 0 -45 16.5t-19 48.5h-3
q-57 -67 -124 -67q-63 0 -103 45.5t-40 112.5q0 110 67 197t168 87q81 0 112 -82l23 63h63z" />
    <glyph glyph-name="A" unicode="A" horiz-adv-x="648" 
d="M-7 0l279 714h105l279 -714h-105l-78 215h-302l-80 -215h-98zM322 628l-121 -333h242l-119 333h-2z" />
    <glyph glyph-name="B" unicode="B" horiz-adv-x="685" 
d="M173 327v-247h238q61 0 97.5 34.5t36.5 93.5q0 119 -155 119h-217zM78 0v714h259q146 0 189 -26q84 -50 84 -149q0 -56 -28 -98t-78 -62v-2q65 -13 100.5 -59t35.5 -113q0 -84 -58 -144.5t-159 -60.5h-345zM173 634v-227h190q80 0 116 28.5t36 85.5q0 36 -11.5 59.5
t-34.5 34.5t-47 15t-59 4h-190z" />
    <glyph glyph-name="C" unicode="C" horiz-adv-x="722" 
d="M675 499h-95q-15 74 -69 113t-131 39q-120 0 -181 -83.5t-61 -205.5q0 -131 60.5 -215t182.5 -84q91 0 145 57t61 149h95q-14 -135 -94.5 -210.5t-214.5 -75.5q-160 0 -245 104t-85 268q0 162 89.5 269t248.5 107q116 0 197 -60.5t97 -171.5z" />
    <glyph glyph-name="D" unicode="D" horiz-adv-x="704" 
d="M78 0v714h245q167 0 255 -85t88 -255q0 -374 -343 -374h-245zM173 634v-554h158q26 0 50.5 3.5t61.5 20t63 44.5t45.5 83t19.5 130q0 134 -56 203.5t-182 69.5h-160z" />
    <glyph glyph-name="E" unicode="E" horiz-adv-x="611" 
d="M78 0v714h493v-80h-398v-227h371v-80h-371v-247h401v-80h-496z" />
    <glyph glyph-name="F" unicode="F" horiz-adv-x="574" 
d="M78 0v714h469v-80h-374v-227h328v-80h-328v-327h-95z" />
    <glyph glyph-name="G" unicode="G" horiz-adv-x="759" 
d="M637 0l-25 89q-39 -53 -100.5 -79.5t-128.5 -26.5q-153 0 -246.5 106.5t-93.5 253.5q0 165 89 276.5t251 111.5q123 0 205.5 -58.5t101.5 -178.5h-95q-14 78 -71.5 117.5t-140.5 39.5q-62 0 -110.5 -25.5t-77 -69t-43 -96.5t-14.5 -112q0 -118 65.5 -201.5t179.5 -83.5
q108 0 171 66.5t58 166.5h-228v80h313v-376h-60z" />
    <glyph glyph-name="H" unicode="H" horiz-adv-x="722" 
d="M78 0v714h95v-307h376v307h95v-714h-95v327h-376v-327h-95z" />
    <glyph glyph-name="I" unicode="I" horiz-adv-x="259" 
d="M82 0v714h95v-714h-95z" />
    <glyph glyph-name="J" unicode="J" horiz-adv-x="519" 
d="M441 714v-536q0 -83 -50 -139t-161 -56q-100 0 -154 54t-54 154v44h95v-30q0 -69 25 -105.5t90 -36.5q62 0 88 33t26 96v522h95z" />
    <glyph glyph-name="K" unicode="K" horiz-adv-x="667" 
d="M78 0v714h95v-356l362 356h123l-301 -288l313 -426h-120l-258 361l-119 -111v-250h-95z" />
    <glyph glyph-name="L" unicode="L" 
d="M78 0v714h95v-634h378v-80h-473z" />
    <glyph glyph-name="M" unicode="M" horiz-adv-x="871" 
d="M80 0v714h130l225 -600l226 600h130v-714h-90v594h-2l-223 -594h-81l-223 594h-2v-594h-90z" />
    <glyph glyph-name="N" unicode="N" horiz-adv-x="722" 
d="M77 0v714h101l376 -579h2v579h90v-714h-104l-373 573h-2v-573h-90z" />
    <glyph glyph-name="O" unicode="O" horiz-adv-x="760" 
d="M38 357q0 100 37 183t116.5 137t188.5 54t188.5 -54t116.5 -137t37 -183t-37 -183t-116.5 -137t-188.5 -54t-188.5 54t-116.5 137t-37 183zM133 357q0 -76 24.5 -140.5t82 -109t140.5 -44.5t140.5 44.5t82 109t24.5 140.5t-24.5 140.5t-82 109t-140.5 44.5t-140.5 -44.5
t-82 -109t-24.5 -140.5z" />
    <glyph glyph-name="P" unicode="P" horiz-adv-x="648" 
d="M78 0v714h313q106 0 162.5 -55.5t56.5 -155.5t-57 -156t-162 -55h-218v-292h-95zM173 634v-262h186q156 -1 156 131q0 131 -156 131h-186z" />
    <glyph glyph-name="Q" unicode="Q" horiz-adv-x="760" 
d="M708 -2l-48 -60l-109 88q-72 -43 -171 -43q-109 0 -188.5 54t-116.5 137t-37 183t37 183t116.5 137t188.5 54t188.5 -54t116.5 -137t37 -183q0 -179 -108 -284zM400 146l50 58l95 -76q82 81 82 229q0 76 -24.5 140.5t-82 109t-140.5 44.5t-140.5 -44.5t-82 -109
t-24.5 -140.5t24.5 -140.5t82 -109t140.5 -44.5q53 0 99 20z" />
    <glyph glyph-name="R" unicode="R" horiz-adv-x="685" 
d="M173 385h198q77 0 121 27.5t44 99.5q0 55 -31.5 88.5t-95.5 33.5h-236v-249zM78 0v714h336q100 0 158.5 -50.5t58.5 -136.5q0 -67 -31 -115.5t-93 -65.5v-2q57 -11 79 -48t28 -99q1 -8 3.5 -50.5t5 -58.5t11 -43.5t22.5 -44.5h-106q-12 13 -15 40.5t-4.5 68t-6.5 67.5
q-4 31 -10 50.5t-18.5 39.5t-35 29.5t-55.5 9.5h-232v-305h-95z" />
    <glyph glyph-name="S" unicode="S" horiz-adv-x="648" 
d="M581 505h-90q-16 146 -177 146q-68 0 -114 -29t-46 -93q0 -14 3.5 -26.5t12.5 -22t17.5 -17.5t24.5 -15t28 -11.5t33 -10t34.5 -8.5t38 -8t37.5 -8q50 -11 85 -24t70.5 -35.5t54 -59.5t18.5 -87q0 -72 -44 -122t-104.5 -70.5t-130.5 -20.5q-128 0 -211.5 64t-83.5 188h90
q0 -85 60 -128.5t148 -43.5q76 0 128.5 30t52.5 100q0 26 -11.5 46.5t-29 33.5t-46.5 24t-54.5 17t-62.5 14q-16 3 -24 5q-41 9 -68.5 16.5t-60.5 23t-53 34t-33.5 48t-13.5 67.5q0 102 76 155.5t183 53.5q115 0 187 -56.5t76 -169.5z" />
    <glyph glyph-name="T" unicode="T" horiz-adv-x="574" 
d="M240 0v634h-238v80h571v-80h-238v-634h-95z" />
    <glyph glyph-name="U" unicode="U" horiz-adv-x="722" 
d="M648 714v-456q0 -134 -73 -204.5t-208 -70.5q-142 0 -217.5 68t-75.5 207v456h95v-456q0 -94 51.5 -144.5t146.5 -50.5q90 0 138 50.5t48 144.5v456h95z" />
    <glyph glyph-name="V" unicode="V" horiz-adv-x="611" 
d="M613 714l-254 -714h-108l-252 714h103l204 -619h2l206 619h99z" />
    <glyph glyph-name="W" unicode="W" horiz-adv-x="926" 
d="M914 714l-191 -714h-99l-163 600h-2l-165 -600h-99l-183 714h97l140 -594h2l160 594h103l158 -594h2l145 594h95z" />
    <glyph glyph-name="X" unicode="X" horiz-adv-x="611" 
d="M-1 0l249 367l-235 347h114l178 -279l186 279h106l-236 -347l251 -367h-116l-192 295l-198 -295h-107z" />
    <glyph glyph-name="Y" unicode="Y" horiz-adv-x="648" 
d="M646 714l-273 -422v-292h-95v292l-276 422h113l214 -340l209 340h108z" />
    <glyph glyph-name="Z" unicode="Z" horiz-adv-x="611" 
d="M22 0v80l444 554h-410v80h522v-80l-443 -554h455v-80h-568z" />
    <glyph glyph-name="bracketleft" unicode="[" horiz-adv-x="259" 
d="M259 731v-68h-107v-793h107v-68h-187v929h187z" />
    <glyph glyph-name="backslash" unicode="\" horiz-adv-x="333" 
d="M55 731l296 -748h-73l-296 748h73z" />
    <glyph glyph-name="bracketright" unicode="]" horiz-adv-x="259" 
d="M0 -198v68h107v793h-107v68h187v-929h-187z" />
    <glyph glyph-name="asciicircum" unicode="^" horiz-adv-x="600" 
d="M50 264l218 433h64l218 -433h-70l-181 360l-178 -360h-71z" />
    <glyph glyph-name="underscore" unicode="_" horiz-adv-x="500" 
d="M0 -125v50h500v-50h-500z" />
    <glyph glyph-name="grave" unicode="`" horiz-adv-x="222" 
d="M108 588l-131 143h109l86 -143h-64z" />
    <glyph glyph-name="a" unicode="a" horiz-adv-x="537" 
d="M384 180v87q-15 -11 -37.5 -17t-63 -11t-53.5 -7q-49 -9 -76.5 -29.5t-27.5 -63.5q0 -39 28.5 -57.5t71.5 -18.5q76 0 117 37.5t41 79.5zM522 68v-66q-23 -14 -61 -14q-72 0 -72 80q-68 -80 -182 -80q-76 0 -123.5 36t-47.5 109q0 42 14 71.5t42 46t53.5 25t65.5 16.5
q20 4 53 8.5t50 8t36 10t27 19t8 30.5q0 86 -115 86q-124 0 -129 -98h-85q4 90 64 131.5t155 41.5q194 0 194 -142v-266q0 -35 4 -46.5t23 -11.5q12 0 26 5z" />
    <glyph glyph-name="b" unicode="b" horiz-adv-x="593" 
d="M467 263q0 79 -41 135t-119 56q-80 0 -119 -57t-39 -138q0 -84 40.5 -140t122.5 -56q81 0 118 57.5t37 142.5zM67 0v714h85v-267h2q20 41 64.5 61.5t100.5 20.5q114 0 176 -78t62 -194t-61.5 -192.5t-174.5 -76.5q-47 0 -94 19.5t-73 61.5h-2v-69h-85z" />
    <glyph glyph-name="c" unicode="c" horiz-adv-x="537" 
d="M503 351h-88q-10 49 -43 76t-85 27q-44 0 -76.5 -16.5t-50.5 -45.5t-26 -63.5t-8 -76.5q0 -79 37.5 -134t113.5 -55q61 0 97.5 33.5t44.5 92.5h87q-14 -96 -73 -148.5t-155 -52.5q-116 0 -179 72.5t-63 191.5q0 122 63 199.5t181 77.5q93 0 153.5 -45t69.5 -133z" />
    <glyph glyph-name="d" unicode="d" horiz-adv-x="593" 
d="M526 714v-714h-85v70h-2q-20 -41 -64.5 -61.5t-100.5 -20.5q-114 0 -176 78t-62 194t61.5 192.5t174.5 76.5q47 0 94 -19.5t73 -61.5h2v266h85zM126 254q0 -79 41 -135t119 -56q80 0 119 57t39 138q0 84 -40.5 140t-122.5 56q-81 0 -118 -57.5t-37 -142.5z" />
    <glyph glyph-name="e" unicode="e" horiz-adv-x="537" 
d="M421 164h84q-17 -85 -75 -130.5t-146 -45.5q-119 0 -181.5 74t-66.5 198q0 116 68.5 192.5t174.5 76.5q53 0 95 -19t68 -49t43 -70t23.5 -79.5t4.5 -78.5h-387q-2 -72 39 -121t122 -49q111 0 134 101zM126 308h297q-3 62 -45 104t-104 42q-64 0 -103.5 -42t-44.5 -104z
" />
    <glyph glyph-name="f" unicode="f" horiz-adv-x="296" 
d="M99 0v442h-87v75h87v77q0 63 36.5 95.5t106.5 32.5q29 0 55 -8v-74q-21 7 -48 7q-33 0 -49 -13t-16 -45v-72h100v-75h-100v-442h-85z" />
    <glyph glyph-name="g" unicode="g" horiz-adv-x="574" 
d="M272 69q78 0 116 59t38 141q0 77 -36.5 131t-110.5 54q-77 0 -115 -53.5t-38 -134.5q0 -51 12.5 -93t46.5 -73t87 -31zM510 517v-473q0 -254 -240 -254q-53 0 -98 13.5t-79.5 49.5t-36.5 89h85q3 -42 43.5 -63t90.5 -21q155 0 155 196v34h-2q-20 -45 -64.5 -69.5
t-96.5 -24.5q-110 0 -170.5 75t-60.5 187q0 49 12.5 94.5t39 87t75 66.5t112.5 25q107 0 154 -86h1v74h80z" />
    <glyph glyph-name="h" unicode="h" 
d="M64 0v714h85v-273h2q20 44 66 66t97 22q96 0 137 -49.5t41 -139.5v-340h-85v350q0 48 -28.5 76t-76.5 28q-75 0 -114 -44.5t-39 -117.5v-292h-85z" />
    <glyph glyph-name="i" unicode="i" horiz-adv-x="222" 
d="M69 0v517h85v-517h-85zM154 714v-104h-85v104h85z" />
    <glyph glyph-name="j" unicode="j" horiz-adv-x="222" 
d="M154 517v-583q0 -67 -33 -99.5t-91 -32.5q-24 0 -44 4v73q12 -2 35 -2q28 0 38 15.5t10 55.5v569h85zM154 714v-104h-85v104h85z" />
    <glyph glyph-name="k" unicode="k" horiz-adv-x="519" 
d="M69 0v714h85v-423l236 226h114l-205 -188l220 -329h-108l-177 270l-80 -74v-196h-85z" />
    <glyph glyph-name="l" unicode="l" horiz-adv-x="222" 
d="M69 0v714h85v-714h-85z" />
    <glyph glyph-name="m" unicode="m" horiz-adv-x="853" 
d="M64 0v517h80v-76h2q58 88 167 88q51 0 89 -21.5t53 -66.5q26 41 69 64.5t93 23.5q172 0 172 -150v-379h-85v339q0 55 -21 85t-79 30q-61 0 -98 -36t-37 -96v-322h-85v339q0 55 -21.5 85t-75.5 30q-35 0 -63.5 -15t-43.5 -37t-23 -43t-8 -37v-322h-85z" />
    <glyph glyph-name="n" unicode="n" 
d="M64 0v517h80v-82h2q53 94 168 94q96 0 137 -49.5t41 -139.5v-340h-85v350q0 48 -28.5 76t-76.5 28q-75 0 -114 -44.5t-39 -117.5v-292h-85z" />
    <glyph glyph-name="o" unicode="o" horiz-adv-x="574" 
d="M36 258q0 119 66 195t185 76t185 -76t66 -195q0 -118 -66 -194t-185 -76t-185 76t-66 194zM126 258q0 -91 46 -143t115 -52t115 52t46 143t-46 143.5t-115 52.5t-115 -52.5t-46 -143.5z" />
    <glyph glyph-name="p" unicode="p" horiz-adv-x="593" 
d="M467 263q0 79 -41 135t-119 56q-80 0 -119 -57t-39 -138q0 -84 40.5 -140t122.5 -56q81 0 118 57.5t37 142.5zM67 -198v715h85v-70h2q20 41 64.5 61.5t100.5 20.5q114 0 176 -78t62 -194t-61.5 -192.5t-174.5 -76.5q-47 0 -94 19.5t-73 61.5h-2v-267h-85z" />
    <glyph glyph-name="q" unicode="q" horiz-adv-x="593" 
d="M526 517v-715h-85v268h-2q-20 -41 -64.5 -61.5t-100.5 -20.5q-114 0 -176 78t-62 194t61.5 192.5t174.5 76.5q47 0 94 -19.5t73 -61.5h2v69h85zM126 254q0 -79 41 -135t119 -56q80 0 119 57t39 138q0 84 -40.5 140t-122.5 56q-81 0 -118 -57.5t-37 -142.5z" />
    <glyph glyph-name="r" unicode="r" horiz-adv-x="333" 
d="M61 0v517h80v-109h2q31 64 76.5 93.5t113.5 27.5v-90q-99 0 -143 -53t-44 -156v-230h-85z" />
    <glyph glyph-name="s" unicode="s" horiz-adv-x="500" 
d="M31 163h85q2 -53 41 -76.5t98 -23.5q125 0 125 77q0 11 -2.5 20t-9.5 16.5l-12.5 13.5t-18 11t-20.5 8.5t-25 8l-25 6.5t-28 6t-28 6q-37 8 -62.5 17t-52.5 25.5t-40.5 42.5t-13.5 61q0 72 58 109.5t135 37.5q203 0 212 -162h-85q-4 46 -38 66.5t-82 20.5q-46 0 -78 -15
t-32 -51q0 -13 4.5 -23t15.5 -18t21 -14t28.5 -11t31 -8l35 -8t33.5 -8q38 -8 63.5 -17t52 -25.5t40 -42.5t13.5 -62q0 -44 -19 -77t-52 -51t-70 -26.5t-79 -8.5q-95 0 -155 42.5t-64 132.5z" />
    <glyph glyph-name="t" unicode="t" horiz-adv-x="315" 
d="M182 672v-155h103v-75h-103v-321q0 -29 12 -37.5t52 -8.5h39v-75h-65q-69 0 -96 22.5t-27 90.5v329h-88v75h88v155h85z" />
    <glyph glyph-name="u" unicode="u" 
d="M492 517v-517h-80v82h-2q-53 -94 -168 -94q-96 0 -137 49.5t-41 139.5v340h85v-350q0 -47 28.5 -75.5t76.5 -28.5q75 0 114 44.5t39 117.5v292h85z" />
    <glyph glyph-name="v" unicode="v" horiz-adv-x="500" 
d="M486 517l-189 -517h-91l-192 517h95l145 -431h2l141 431h89z" />
    <glyph glyph-name="w" unicode="w" horiz-adv-x="758" 
d="M741 517l-165 -517h-90l-105 411h-2l-104 -411h-92l-166 517h94l117 -423h2l104 423h93l108 -423h2l116 423h88z" />
    <glyph glyph-name="x" unicode="x" horiz-adv-x="518" 
d="M9 0l194 272l-180 245h109l124 -181l129 181h102l-178 -238l200 -279h-109l-144 214l-144 -214h-103z" />
    <glyph glyph-name="y" unicode="y" horiz-adv-x="500" 
d="M492 517l-225 -586q-30 -77 -62 -107.5t-88 -30.5q-35 0 -59 9v78q38 -12 50 -12q45 0 70 47l35 88l-205 514h96l151 -423h2l145 423h90z" />
    <glyph glyph-name="z" unicode="z" horiz-adv-x="480" 
d="M22 0v65l312 377h-292v75h402v-58l-316 -384h330v-75h-436z" />
    <glyph glyph-name="braceleft" unicode="{" horiz-adv-x="333" 
d="M309 731v-60h-50q-48 0 -48 -86v-183q0 -61 -29.5 -94t-57.5 -40v-3q11 -1 24 -8t28 -21.5t25 -41.5t10 -63v-183q0 -86 48 -86h50v-60h-70q-41 0 -74.5 35.5t-33.5 95.5v182q0 52 -25 84.5t-58 32.5v68q33 0 58 33.5t25 84.5v182q0 60 33.5 95.5t74.5 35.5h70z" />
    <glyph glyph-name="bar" unicode="|" horiz-adv-x="222" 
d="M77 -214v1000h68v-1000h-68z" />
    <glyph glyph-name="braceright" unicode="}" horiz-adv-x="333" 
d="M24 -198v60h50q48 0 48 86v183q0 61 29.5 94t57.5 40v3q-11 1 -24 8t-28 21.5t-25 41.5t-10 63v181q0 88 -48 88h-50v60h70q41 0 74.5 -35.5t33.5 -95.5v-182q0 -53 25 -85.5t58 -32.5v-68q-33 0 -58 -33t-25 -84v-182q0 -60 -33.5 -95.5t-74.5 -35.5h-70z" />
    <glyph glyph-name="asciitilde" unicode="~" horiz-adv-x="600" 
d="M495 319l36 -50q-20 -27 -33 -42t-38 -29.5t-54 -14.5q-42 0 -102 33q-69 39 -115 39q-49 0 -84 -76l-36 50q45 86 125 86q39 0 111 -32q10 -4 34.5 -16.5t40 -18t27.5 -5.5q19 0 37 14t26 25t25 37z" />
    <glyph glyph-name="uni00A0" unicode="&#xa0;" horiz-adv-x="278" 
 />
    <glyph glyph-name="exclamdown" unicode="&#xa1;" horiz-adv-x="259" 
d="M82 -198v220l25 311h45l25 -311v-220h-95zM185 517v-111h-111v111h111z" />
    <glyph glyph-name="cent" unicode="&#xa2;" 
d="M272 63v391q-72 -9 -104 -64.5t-32 -137.5q0 -75 34 -129.5t102 -59.5zM272 -116v104q-107 4 -166.5 77t-59.5 187t59 192t167 85v95h39v-95q85 -2 139 -46t64 -132h-87q-10 47 -39.5 74.5t-76.5 28.5v-391q102 10 121 126h85q-8 -81 -63 -141t-143 -60v-104h-39z" />
    <glyph glyph-name="sterling" unicode="&#xa3;" 
d="M47 327v45h58q-47 78 -47 156q0 92 66.5 147.5t161.5 55.5q113 0 175.5 -66t60.5 -192h-85q-5 183 -146 183q-60 0 -101.5 -38t-41.5 -93q0 -23 5.5 -46t11 -35.5t18.5 -37t17 -34.5h159v-45h-137q20 -38 20 -75q0 -42 -18.5 -79t-39 -57.5t-58.5 -51.5l2 -2
q66 29 105 29q37 0 95 -15q61 -18 84 -18q42 0 89 37l43 -66q-54 -46 -146 -46q-37 0 -99 20q-69 21 -105 21q-48 0 -100 -35l-47 66q47 32 78.5 78.5t31.5 100.5q0 39 -25 93h-85z" />
    <glyph glyph-name="currency" unicode="&#xa4;" 
d="M25 555l49 49l56 -56q61 51 151 51q85 0 143 -50l57 56l50 -51l-55 -55q52 -57 52 -148q0 -87 -52 -150l55 -56l-47 -47l-56 58q-58 -55 -148 -55q-92 0 -152 54l-55 -58l-48 48l55 58q-52 63 -52 146q0 94 54 148zM281 524q-71 0 -119.5 -50.5t-48.5 -124.5
q0 -73 48.5 -123t118.5 -50q69 0 116 51t47 124q0 71 -47 122t-115 51z" />
    <glyph glyph-name="yen" unicode="&#xa5;" 
d="M232 0v174h-141v60h141v42l-18 33h-123v60h92l-183 345h109l174 -353l169 353h104l-178 -345h93v-60h-126l-18 -33v-42h144v-60h-144v-174h-95z" />
    <glyph glyph-name="brokenbar" unicode="&#xa6;" horiz-adv-x="222" 
d="M77 -89v250h68v-250h-68zM145 661v-250h-68v250h68z" />
    <glyph glyph-name="section" unicode="&#xa7;" 
d="M190 420q-30 -10 -51.5 -35.5t-21.5 -55.5q0 -22 8 -40t28 -35t30.5 -23.5l38.5 -23.5q80 -42 140 -83q72 30 72 93q0 20 -9 37.5t-30 34.5t-30.5 23.5t-36.5 22.5q-121 74 -138 85zM465 546h-85q-1 47 -28 78.5t-73 31.5q-42 0 -68.5 -22t-26.5 -64q0 -10 2.5 -20
t9 -19.5t12.5 -17t18 -16.5t20 -14.5t24 -15l24.5 -14.5t28 -15.5t27.5 -14.5q78 -41 122 -85t44 -109q0 -48 -29 -89t-75 -58q59 -44 59 -120q0 -72 -52.5 -116t-134.5 -44q-88 0 -141.5 50.5t-59.5 138.5h85q1 -51 32 -82.5t82 -31.5q40 0 70.5 22t30.5 61q0 15 -4.5 28
t-15.5 25.5t-20.5 21.5t-29 21.5t-31 19l-37 20.5l-36.5 20q-38 20 -64.5 37.5t-54 43t-41.5 57.5t-14 71q0 46 31 86t76 52q-46 48 -46 106q0 74 55.5 118t129.5 44q84 0 133 -47t51 -138z" />
    <glyph glyph-name="dieresis" unicode="&#xa8;" horiz-adv-x="222" 
d="M160 592v104h90v-104h-90zM-28 592v104h90v-104h-90z" />
    <glyph glyph-name="copyright" unicode="&#xa9;" horiz-adv-x="800" 
d="M24 359q0 157 111 264.5t266 107.5t265 -107.5t110 -264.5q0 -159 -110 -267.5t-265 -108.5q-156 0 -266.5 108.5t-110.5 267.5zM92 359q0 -137 89 -229t220 -92q130 0 218.5 92t88.5 229q0 134 -88.5 225.5t-218.5 91.5q-131 0 -220 -91.5t-89 -225.5zM535 285h64
q-16 -72 -66.5 -114.5t-119.5 -42.5q-100 0 -161 64.5t-61 164.5q0 102 59 165t160 63q74 0 125.5 -39.5t62.5 -112.5h-63q-8 43 -41.5 70t-82.5 27q-72 0 -112 -48t-40 -123q0 -73 42.5 -124.5t111.5 -51.5q49 0 82 28.5t40 73.5z" />
    <glyph glyph-name="ordfeminine" unicode="&#xaa;" horiz-adv-x="378" 
d="M317 622v-160q0 -32 14 -32q15 0 22 2v-44q-21 -8 -43 -8q-48 0 -51 46q-44 -46 -117 -46q-51 0 -84 22.5t-33 66.5q0 87 120 99q72 8 93.5 15.5t21.5 26.5q0 30 -20.5 39.5t-56.5 9.5q-80 0 -83 -56h-60q3 54 43.5 80t103.5 26q130 0 130 -87zM155 430q51 0 76.5 21
t25.5 48v47q-15 -9 -100 -23q-31 -5 -47.5 -16.5t-16.5 -35.5q0 -41 62 -41z" />
    <glyph glyph-name="guillemotleft" unicode="&#xab;" horiz-adv-x="463" 
d="M398 114l-152 120v88l152 120v-86l-100 -78l100 -78v-86zM202 114l-152 120v88l152 120v-86l-100 -78l100 -78v-86z" />
    <glyph glyph-name="logicalnot" unicode="&#xac;" horiz-adv-x="600" 
d="M552 388v-279h-68v211h-436v68h504z" />
    <glyph glyph-name="uni00AD" unicode="&#xad;" horiz-adv-x="389" 
d="M50 238v80h289v-80h-289z" />
    <glyph glyph-name="registered" unicode="&#xae;" horiz-adv-x="800" 
d="M24 359q0 157 111 264.5t266 107.5t265 -107.5t110 -264.5q0 -159 -110 -267.5t-265 -108.5q-156 0 -266.5 108.5t-110.5 267.5zM92 359q0 -137 89 -229t220 -92q130 0 218.5 92t88.5 229q0 134 -88.5 225.5t-218.5 91.5q-131 0 -220 -91.5t-89 -225.5zM255 139v437h169
q153 0 153 -125q0 -107 -115 -119l125 -193h-73l-119 188h-72v-188h-68zM323 521v-139h71q22 0 35.5 1t30.5 4.5t26.5 11t16 21.5t6.5 34q0 67 -96 67h-90z" />
    <glyph glyph-name="macron" unicode="&#xaf;" horiz-adv-x="222" 
d="M-59 620v55h341v-55h-341z" />
    <glyph glyph-name="degree" unicode="&#xb0;" horiz-adv-x="400" 
d="M56 565q0 60 42 102t102 42t102 -42t42 -102t-42 -102t-102 -42t-102 42t-42 102zM106 565q0 -37 26 -65.5t68 -28.5t68 28.5t26 65.5t-26 65.5t-68 28.5t-68 -28.5t-26 -65.5z" />
    <glyph glyph-name="plusminus" unicode="&#xb1;" horiz-adv-x="600" 
d="M48 271v68h218v166h68v-166h218v-68h-218v-167h-68v167h-218zM48 0v68h504v-68h-504z" />
    <glyph glyph-name="twosuperior" unicode="&#xb2;" horiz-adv-x="333" 
d="M90 555h-68q0 69 42 111.5t111 42.5q63 0 105.5 -34t42.5 -92q0 -27 -9 -49t-27.5 -40t-34.5 -29.5t-42 -26.5l-32.5 -19t-35 -21t-26 -18t-24 -22.5t-10.5 -22.5h235v-55h-303q2 48 21.5 82.5t41.5 51.5t62 40q66 38 91 63.5t25 66.5q0 31 -24 50.5t-59 19.5
q-42 0 -62 -28t-20 -71z" />
    <glyph glyph-name="threesuperior" unicode="&#xb3;" horiz-adv-x="333" 
d="M132 477v50h24q36 0 59.5 16t23.5 49q0 29 -21.5 45.5t-55.5 16.5q-39 0 -59.5 -24t-20.5 -62h-68q4 65 43 103t105 38q64 0 104.5 -30.5t40.5 -86.5q0 -27 -19.5 -50t-48.5 -35v-2q42 -8 64.5 -35.5t22.5 -66.5q0 -62 -47.5 -96t-114.5 -34q-70 0 -115 37t-45 104h68
q1 -41 25 -63.5t67 -22.5q39 0 66.5 19.5t27.5 52.5q0 39 -27 58t-66 19h-33z" />
    <glyph glyph-name="acute" unicode="&#xb4;" horiz-adv-x="222" 
d="M50 588l86 143h109l-131 -143h-64z" />
    <glyph glyph-name="mu" unicode="&#xb5;" 
d="M492 517v-517h-80v82h-2q-53 -94 -168 -94q-67 0 -91 38h-2v-224h-85v715h85v-350q0 -47 28.5 -75.5t76.5 -28.5q75 0 114 44.5t39 117.5v292h85z" />
    <glyph glyph-name="paragraph" unicode="&#xb6;" horiz-adv-x="600" 
d="M515 714v-869h-68v814h-122v-814h-68v477q-91 0 -150 53.5t-59 132.5q0 97 61 151.5t167 54.5h239z" />
    <glyph glyph-name="periodcentered" unicode="&#xb7;" horiz-adv-x="278" 
d="M75 311q0 26 19 45t45 19q25 0 44.5 -19.5t19.5 -44.5q0 -24 -19.5 -44t-43.5 -20q-26 0 -45.5 19t-19.5 45z" />
    <glyph glyph-name="cedilla" unicode="&#xb8;" horiz-adv-x="222" 
d="M5 -191l18 44q35 -13 61 -13q24 0 43 7.5t19 23.5q0 13 -13.5 22t-33.5 9q-17 0 -41 -8l-17 28l61 78h42l-42 -53l2 -2q10 7 33 7q34 0 59 -19t25 -54q0 -46 -37.5 -67.5t-86.5 -21.5q-40 0 -92 19z" />
    <glyph glyph-name="onesuperior" unicode="&#xb9;" horiz-adv-x="333" 
d="M249 709v-429h-68v308h-115v50q118 2 133 71h50z" />
    <glyph glyph-name="ordmasculine" unicode="&#xba;" horiz-adv-x="384" 
d="M192 709q79 0 123 -46.5t44 -119.5q0 -74 -43 -118.5t-123 -44.5q-78 0 -123 45t-45 118t44 119.5t123 46.5zM192 659q-43 0 -71 -29.5t-28 -86.5q0 -49 24.5 -81t75.5 -32q50 0 74 31.5t24 80.5q0 65 -29 91t-70 26z" />
    <glyph glyph-name="guillemotright" unicode="&#xbb;" horiz-adv-x="463" 
d="M65 442l152 -120v-88l-152 -120v86l100 78l-100 78v86zM261 442l152 -120v-88l-152 -120v86l100 78l-100 78v86z" />
    <glyph glyph-name="onequarter" unicode="&#xbc;" horiz-adv-x="834" 
d="M723 429v-278h60v-55h-60v-96h-62v96h-199v58l210 275h51zM659 344l-148 -193h150v193h-2zM150 -28l435 753h64l-435 -753h-64zM219 709v-429h-68v308h-115v50q118 0 133 71h50z" />
    <glyph glyph-name="onehalf" unicode="&#xbd;" horiz-adv-x="834" 
d="M135 -28l435 753h64l-435 -753h-64zM219 709v-429h-68v308h-115v50q118 0 133 71h50zM570 275h-68q0 69 42 111.5t111 42.5q63 0 105.5 -34t42.5 -92q0 -27 -9 -49t-27.5 -40t-34.5 -29.5t-42 -26.5l-32.5 -19t-35 -21t-26 -18t-24 -22.5t-10.5 -22.5h235v-55h-303
q2 48 21.5 82.5t41.5 51.5t62 40q66 38 91 63.5t25 66.5q0 31 -24 50.5t-59 19.5q-42 0 -62 -28t-20 -71z" />
    <glyph glyph-name="threequarters" unicode="&#xbe;" horiz-adv-x="834" 
d="M740 429v-278h60v-55h-60v-96h-62v96h-199v58l210 275h51zM677 340l-148 -193h150v193h-2zM215 -28l435 753h64l-435 -753h-64zM177 477v50h24q36 0 59.5 16t23.5 49q0 29 -21.5 45.5t-55.5 16.5q-39 0 -59.5 -24t-20.5 -62h-68q4 65 43 103t105 38q64 0 104.5 -30.5
t40.5 -86.5q0 -27 -19.5 -50t-48.5 -35v-2q42 -8 64.5 -35.5t22.5 -66.5q0 -62 -47.5 -96t-114.5 -34q-70 0 -115 37t-45 104h68q1 -41 25 -63.5t67 -22.5q39 0 66.5 19.5t27.5 52.5q0 39 -27 58t-66 19h-33z" />
    <glyph glyph-name="questiondown" unicode="&#xbf;" 
d="M418 30h85q2 -105 -59.5 -172.5t-164.5 -67.5q-94 0 -152.5 53.5t-58.5 146.5q0 38 13.5 71.5t29.5 53t43 45.5q31 29 44 43t28 43.5t15 61.5v31h85v-39q0 -24 -6.5 -46.5t-12.5 -35.5t-23.5 -34t-22 -25.5l-25.5 -25.5q-47 -47 -60 -71q-21 -36 -18 -80q4 -55 36 -86
t85 -31q68 0 104 46t35 119zM337 517v-111h-111v111h111z" />
    <glyph glyph-name="Agrave" unicode="&#xc0;" horiz-adv-x="648" 
d="M-7 0l279 714h105l279 -714h-105l-78 215h-302l-80 -215h-98zM322 628l-121 -333h242l-119 333h-2zM321 765l-131 143h109l86 -143h-64z" />
    <glyph glyph-name="Aacute" unicode="&#xc1;" horiz-adv-x="648" 
d="M-7 0l279 714h105l279 -714h-105l-78 215h-302l-80 -215h-98zM322 628l-121 -333h242l-119 333h-2zM263 765l86 143h109l-131 -143h-64z" />
    <glyph glyph-name="Acircumflex" unicode="&#xc2;" horiz-adv-x="648" 
d="M-7 0l279 714h105l279 -714h-105l-78 215h-302l-80 -215h-98zM322 628l-121 -333h242l-119 333h-2zM174 765l103 143h93l104 -143h-84l-69 96l-70 -96h-77z" />
    <glyph glyph-name="Atilde" unicode="&#xc3;" horiz-adv-x="648" 
d="M-7 0l279 714h105l279 -714h-105l-78 215h-302l-80 -215h-98zM322 628l-121 -333h242l-119 333h-2zM446 888h52q-6 -44 -31 -80q-28 -31 -79 -31q-18 0 -66 20q-51 19 -67 19q-18 0 -33.5 -12t-14.5 -30h-52q14 51 38 80.5t67 29.5q28 0 74 -20t66 -20q33 0 46 44z" />
    <glyph glyph-name="Adieresis" unicode="&#xc4;" horiz-adv-x="648" 
d="M-7 0l279 714h105l279 -714h-105l-78 215h-302l-80 -215h-98zM322 628l-121 -333h242l-119 333h-2zM373 769v104h90v-104h-90zM185 769v104h90v-104h-90z" />
    <glyph glyph-name="Aring" unicode="&#xc5;" horiz-adv-x="648" 
d="M-7 0l279 714h105l279 -714h-105l-78 215h-302l-80 -215h-98zM322 628l-121 -333h242l-119 333h-2zM256 839q0 -29 20 -48.5t48 -19.5t48 19.5t20 48.5t-20 48.5t-48 19.5t-48 -19.5t-20 -48.5zM211 839q0 47 33.5 80t79.5 33t79.5 -33t33.5 -80t-33.5 -80t-79.5 -33
t-79.5 33t-33.5 80z" />
    <glyph glyph-name="AE" unicode="&#xc6;" horiz-adv-x="926" 
d="M-7 0l361 714h535v-80h-351v-227h330v-80h-330v-247h357v-80h-447v208h-246l-102 -208h-107zM448 634h-41l-168 -346h209v346z" />
    <glyph glyph-name="Ccedilla" unicode="&#xc7;" horiz-adv-x="722" 
d="M675 499h-95q-15 74 -69 113t-131 39q-120 0 -181 -83.5t-61 -205.5q0 -131 60.5 -215t182.5 -84q91 0 145 57t61 149h95q-14 -132 -92.5 -208t-208.5 -77l-29 -37l2 -2q10 7 33 7q34 0 59 -19t25 -54q0 -46 -37.5 -67.5t-86.5 -21.5q-40 0 -92 19l18 44q35 -13 61 -13
q24 0 43 7.5t19 23.5q0 13 -13.5 22t-33.5 9q-17 0 -41 -8l-17 28l49 63q-145 11 -221 113t-76 257q0 162 89.5 269t248.5 107q116 0 197 -60.5t97 -171.5z" />
    <glyph glyph-name="Egrave" unicode="&#xc8;" horiz-adv-x="611" 
d="M78 0v714h493v-80h-398v-227h371v-80h-371v-247h401v-80h-496zM303 765l-131 143h109l86 -143h-64z" />
    <glyph glyph-name="Eacute" unicode="&#xc9;" horiz-adv-x="611" 
d="M78 0v714h493v-80h-398v-227h371v-80h-371v-247h401v-80h-496zM245 765l86 143h109l-131 -143h-64z" />
    <glyph glyph-name="Ecircumflex" unicode="&#xca;" horiz-adv-x="611" 
d="M78 0v714h493v-80h-398v-227h371v-80h-371v-247h401v-80h-496zM156 765l103 143h93l104 -143h-84l-69 96l-70 -96h-77z" />
    <glyph glyph-name="Edieresis" unicode="&#xcb;" horiz-adv-x="611" 
d="M78 0v714h493v-80h-398v-227h371v-80h-371v-247h401v-80h-496zM355 769v104h90v-104h-90zM167 769v104h90v-104h-90z" />
    <glyph glyph-name="Igrave" unicode="&#xcc;" horiz-adv-x="259" 
d="M82 0v714h95v-714h-95zM127 765l-131 143h109l86 -143h-64z" />
    <glyph glyph-name="Iacute" unicode="&#xcd;" horiz-adv-x="259" 
d="M82 0v714h95v-714h-95zM69 765l86 143h109l-131 -143h-64z" />
    <glyph glyph-name="Icircumflex" unicode="&#xce;" horiz-adv-x="259" 
d="M82 0v714h95v-714h-95zM-20 765l103 143h93l104 -143h-84l-69 96l-70 -96h-77z" />
    <glyph glyph-name="Idieresis" unicode="&#xcf;" horiz-adv-x="259" 
d="M82 0v714h95v-714h-95zM179 769v104h90v-104h-90zM-9 769v104h90v-104h-90z" />
    <glyph glyph-name="Eth" unicode="&#xd0;" horiz-adv-x="704" 
d="M78 0v339h-70v68h70v307h245q167 0 255 -85t88 -255q0 -374 -343 -374h-245zM173 634v-227h214v-68h-214v-259h158q26 0 50.5 3.5t61.5 20t63 44.5t45.5 83t19.5 130q0 134 -56 203.5t-182 69.5h-160z" />
    <glyph glyph-name="Ntilde" unicode="&#xd1;" horiz-adv-x="722" 
d="M77 0v714h101l376 -579h2v579h90v-714h-104l-373 573h-2v-573h-90zM483 888h52q-6 -44 -31 -80q-28 -31 -79 -31q-18 0 -66 20q-51 19 -67 19q-18 0 -33.5 -12t-14.5 -30h-52q14 51 38 80.5t67 29.5q28 0 74 -20t66 -20q33 0 46 44z" />
    <glyph glyph-name="Ograve" unicode="&#xd2;" horiz-adv-x="760" 
d="M38 357q0 100 37 183t116.5 137t188.5 54t188.5 -54t116.5 -137t37 -183t-37 -183t-116.5 -137t-188.5 -54t-188.5 54t-116.5 137t-37 183zM133 357q0 -76 24.5 -140.5t82 -109t140.5 -44.5t140.5 44.5t82 109t24.5 140.5t-24.5 140.5t-82 109t-140.5 44.5t-140.5 -44.5
t-82 -109t-24.5 -140.5zM377 765l-131 143h109l86 -143h-64z" />
    <glyph glyph-name="Oacute" unicode="&#xd3;" horiz-adv-x="760" 
d="M38 357q0 100 37 183t116.5 137t188.5 54t188.5 -54t116.5 -137t37 -183t-37 -183t-116.5 -137t-188.5 -54t-188.5 54t-116.5 137t-37 183zM133 357q0 -76 24.5 -140.5t82 -109t140.5 -44.5t140.5 44.5t82 109t24.5 140.5t-24.5 140.5t-82 109t-140.5 44.5t-140.5 -44.5
t-82 -109t-24.5 -140.5zM319 765l86 143h109l-131 -143h-64z" />
    <glyph glyph-name="Ocircumflex" unicode="&#xd4;" horiz-adv-x="760" 
d="M38 357q0 100 37 183t116.5 137t188.5 54t188.5 -54t116.5 -137t37 -183t-37 -183t-116.5 -137t-188.5 -54t-188.5 54t-116.5 137t-37 183zM133 357q0 -76 24.5 -140.5t82 -109t140.5 -44.5t140.5 44.5t82 109t24.5 140.5t-24.5 140.5t-82 109t-140.5 44.5t-140.5 -44.5
t-82 -109t-24.5 -140.5zM230 765l103 143h93l104 -143h-84l-69 96l-70 -96h-77z" />
    <glyph glyph-name="Otilde" unicode="&#xd5;" horiz-adv-x="760" 
d="M38 357q0 100 37 183t116.5 137t188.5 54t188.5 -54t116.5 -137t37 -183t-37 -183t-116.5 -137t-188.5 -54t-188.5 54t-116.5 137t-37 183zM133 357q0 -76 24.5 -140.5t82 -109t140.5 -44.5t140.5 44.5t82 109t24.5 140.5t-24.5 140.5t-82 109t-140.5 44.5t-140.5 -44.5
t-82 -109t-24.5 -140.5zM502 888h52q-6 -44 -31 -80q-28 -31 -79 -31q-18 0 -66 20q-51 19 -67 19q-18 0 -33.5 -12t-14.5 -30h-52q14 51 38 80.5t67 29.5q28 0 74 -20t66 -20q33 0 46 44z" />
    <glyph glyph-name="Odieresis" unicode="&#xd6;" horiz-adv-x="760" 
d="M38 357q0 100 37 183t116.5 137t188.5 54t188.5 -54t116.5 -137t37 -183t-37 -183t-116.5 -137t-188.5 -54t-188.5 54t-116.5 137t-37 183zM133 357q0 -76 24.5 -140.5t82 -109t140.5 -44.5t140.5 44.5t82 109t24.5 140.5t-24.5 140.5t-82 109t-140.5 44.5t-140.5 -44.5
t-82 -109t-24.5 -140.5zM429 769v104h90v-104h-90zM241 769v104h90v-104h-90z" />
    <glyph glyph-name="multiply" unicode="&#xd7;" horiz-adv-x="600" 
d="M119 24l-48 48l182 182l-181 180l48 48l181 -180l180 180l48 -48l-180 -180l181 -182l-48 -48l-181 182z" />
    <glyph glyph-name="Oslash" unicode="&#xd8;" horiz-adv-x="760" 
d="M183 170l369 407q-64 74 -172 74q-83 0 -140.5 -44.5t-82 -109t-24.5 -140.5q0 -109 50 -187zM579 541l-369 -407q63 -71 170 -71q83 0 140.5 44.5t82 109t24.5 140.5q0 108 -48 184zM691 730l32 -30l-82 -90q81 -103 81 -253q0 -100 -37 -183t-116.5 -137t-188.5 -54
q-140 0 -229 86l-81 -89l-33 30l84 92q-83 103 -83 255q0 100 37 183t116.5 137t188.5 54q141 0 232 -88z" />
    <glyph glyph-name="Ugrave" unicode="&#xd9;" horiz-adv-x="722" 
d="M648 714v-456q0 -134 -73 -204.5t-208 -70.5q-142 0 -217.5 68t-75.5 207v456h95v-456q0 -94 51.5 -144.5t146.5 -50.5q90 0 138 50.5t48 144.5v456h95zM358 765l-131 143h109l86 -143h-64z" />
    <glyph glyph-name="Uacute" unicode="&#xda;" horiz-adv-x="722" 
d="M648 714v-456q0 -134 -73 -204.5t-208 -70.5q-142 0 -217.5 68t-75.5 207v456h95v-456q0 -94 51.5 -144.5t146.5 -50.5q90 0 138 50.5t48 144.5v456h95zM300 765l86 143h109l-131 -143h-64z" />
    <glyph glyph-name="Ucircumflex" unicode="&#xdb;" horiz-adv-x="722" 
d="M648 714v-456q0 -134 -73 -204.5t-208 -70.5q-142 0 -217.5 68t-75.5 207v456h95v-456q0 -94 51.5 -144.5t146.5 -50.5q90 0 138 50.5t48 144.5v456h95zM211 765l103 143h93l104 -143h-84l-69 96l-70 -96h-77z" />
    <glyph glyph-name="Udieresis" unicode="&#xdc;" horiz-adv-x="722" 
d="M648 714v-456q0 -134 -73 -204.5t-208 -70.5q-142 0 -217.5 68t-75.5 207v456h95v-456q0 -94 51.5 -144.5t146.5 -50.5q90 0 138 50.5t48 144.5v456h95zM410 769v104h90v-104h-90zM222 769v104h90v-104h-90z" />
    <glyph glyph-name="Yacute" unicode="&#xdd;" horiz-adv-x="648" 
d="M646 714l-273 -422v-292h-95v292l-276 422h113l214 -340l209 340h108zM263 765l86 143h109l-131 -143h-64z" />
    <glyph glyph-name="Thorn" unicode="&#xde;" horiz-adv-x="648" 
d="M173 0h-95v714h95v-114h218q106 0 162.5 -55.5t56.5 -156.5q0 -100 -56.5 -155.5t-162.5 -54.5h-218v-178zM173 520v-262h186q156 -1 156 130q0 132 -156 132h-186z" />
    <glyph glyph-name="germandbls" unicode="&#xdf;" 
d="M64 0v531q0 89 54.5 144.5t143.5 55.5q81 0 144 -46.5t63 -128.5q0 -121 -104 -155v-2q65 -8 100.5 -59t35.5 -120q0 -103 -64 -167.5t-167 -64.5q-15 0 -43 4v74q11 -3 34 -3q68 0 109 40.5t41 105.5q0 91 -45 120.5t-139 29.5v68q67 -4 109.5 23.5t42.5 92.5
q0 47 -32 80t-79 33q-58 0 -88.5 -31t-30.5 -109v-516h-85z" />
    <glyph glyph-name="agrave" unicode="&#xe0;" horiz-adv-x="537" 
d="M384 180v87q-15 -11 -37.5 -17t-63 -11t-53.5 -7q-49 -9 -76.5 -29.5t-27.5 -63.5q0 -39 28.5 -57.5t71.5 -18.5q76 0 117 37.5t41 79.5zM522 68v-66q-23 -14 -61 -14q-72 0 -72 80q-68 -80 -182 -80q-76 0 -123.5 36t-47.5 109q0 42 14 71.5t42 46t53.5 25t65.5 16.5
q20 4 53 8.5t50 8t36 10t27 19t8 30.5q0 86 -115 86q-124 0 -129 -98h-85q4 90 64 131.5t155 41.5q194 0 194 -142v-266q0 -35 4 -46.5t23 -11.5q12 0 26 5zM266 588l-131 143h109l86 -143h-64z" />
    <glyph glyph-name="aacute" unicode="&#xe1;" horiz-adv-x="537" 
d="M384 180v87q-15 -11 -37.5 -17t-63 -11t-53.5 -7q-49 -9 -76.5 -29.5t-27.5 -63.5q0 -39 28.5 -57.5t71.5 -18.5q76 0 117 37.5t41 79.5zM522 68v-66q-23 -14 -61 -14q-72 0 -72 80q-68 -80 -182 -80q-76 0 -123.5 36t-47.5 109q0 42 14 71.5t42 46t53.5 25t65.5 16.5
q20 4 53 8.5t50 8t36 10t27 19t8 30.5q0 86 -115 86q-124 0 -129 -98h-85q4 90 64 131.5t155 41.5q194 0 194 -142v-266q0 -35 4 -46.5t23 -11.5q12 0 26 5zM208 588l86 143h109l-131 -143h-64z" />
    <glyph glyph-name="acircumflex" unicode="&#xe2;" horiz-adv-x="537" 
d="M384 180v87q-15 -11 -37.5 -17t-63 -11t-53.5 -7q-49 -9 -76.5 -29.5t-27.5 -63.5q0 -39 28.5 -57.5t71.5 -18.5q76 0 117 37.5t41 79.5zM522 68v-66q-23 -14 -61 -14q-72 0 -72 80q-68 -80 -182 -80q-76 0 -123.5 36t-47.5 109q0 42 14 71.5t42 46t53.5 25t65.5 16.5
q20 4 53 8.5t50 8t36 10t27 19t8 30.5q0 86 -115 86q-124 0 -129 -98h-85q4 90 64 131.5t155 41.5q194 0 194 -142v-266q0 -35 4 -46.5t23 -11.5q12 0 26 5zM119 588l103 143h93l104 -143h-84l-69 96l-70 -96h-77z" />
    <glyph glyph-name="atilde" unicode="&#xe3;" horiz-adv-x="537" 
d="M384 180v87q-15 -11 -37.5 -17t-63 -11t-53.5 -7q-49 -9 -76.5 -29.5t-27.5 -63.5q0 -39 28.5 -57.5t71.5 -18.5q76 0 117 37.5t41 79.5zM522 68v-66q-23 -14 -61 -14q-72 0 -72 80q-68 -80 -182 -80q-76 0 -123.5 36t-47.5 109q0 42 14 71.5t42 46t53.5 25t65.5 16.5
q20 4 53 8.5t50 8t36 10t27 19t8 30.5q0 86 -115 86q-124 0 -129 -98h-85q4 90 64 131.5t155 41.5q194 0 194 -142v-266q0 -35 4 -46.5t23 -11.5q12 0 26 5zM391 711h52q-6 -44 -31 -80q-28 -31 -79 -31q-18 0 -66 20q-51 19 -67 19q-18 0 -33.5 -12t-14.5 -30h-52
q14 51 38 80.5t67 29.5q28 0 74 -20t66 -20q33 0 46 44z" />
    <glyph glyph-name="adieresis" unicode="&#xe4;" horiz-adv-x="537" 
d="M384 180v87q-15 -11 -37.5 -17t-63 -11t-53.5 -7q-49 -9 -76.5 -29.5t-27.5 -63.5q0 -39 28.5 -57.5t71.5 -18.5q76 0 117 37.5t41 79.5zM522 68v-66q-23 -14 -61 -14q-72 0 -72 80q-68 -80 -182 -80q-76 0 -123.5 36t-47.5 109q0 42 14 71.5t42 46t53.5 25t65.5 16.5
q20 4 53 8.5t50 8t36 10t27 19t8 30.5q0 86 -115 86q-124 0 -129 -98h-85q4 90 64 131.5t155 41.5q194 0 194 -142v-266q0 -35 4 -46.5t23 -11.5q12 0 26 5zM318 592v104h90v-104h-90zM130 592v104h90v-104h-90z" />
    <glyph glyph-name="aring" unicode="&#xe5;" horiz-adv-x="537" 
d="M384 180v87q-15 -11 -37.5 -17t-63 -11t-53.5 -7q-49 -9 -76.5 -29.5t-27.5 -63.5q0 -39 28.5 -57.5t71.5 -18.5q76 0 117 37.5t41 79.5zM522 68v-66q-23 -14 -61 -14q-72 0 -72 80q-68 -80 -182 -80q-76 0 -123.5 36t-47.5 109q0 42 14 71.5t42 46t53.5 25t65.5 16.5
q20 4 53 8.5t50 8t36 10t27 19t8 30.5q0 86 -115 86q-124 0 -129 -98h-85q4 90 64 131.5t155 41.5q194 0 194 -142v-266q0 -35 4 -46.5t23 -11.5q12 0 26 5zM201 662q0 -28 19.5 -48t48.5 -20t48.5 20t19.5 48t-19.5 48t-48.5 20t-48.5 -20t-19.5 -48zM156 662q0 46 33 79.5
t80 33.5t80 -33.5t33 -79.5t-33 -79.5t-80 -33.5t-80 33.5t-33 79.5z" />
    <glyph glyph-name="ae" unicode="&#xe6;" horiz-adv-x="870" 
d="M756 308q-2 63 -40 104.5t-103 41.5q-67 0 -106.5 -41t-39.5 -105h289zM126 139q0 -39 28.5 -57.5t71.5 -18.5q77 0 119 37.5t42 79.5v87q-15 -10 -39.5 -16t-64.5 -11.5t-53 -7.5q-49 -9 -76.5 -29.5t-27.5 -63.5zM846 233h-379q0 -73 40 -121.5t115 -48.5q49 0 84 25.5
t47 74.5h87q-19 -83 -78 -129t-146 -46q-142 0 -187 101q-55 -101 -218 -101q-79 0 -127 36t-48 109q0 42 14 71.5t42 46t53.5 25t65.5 16.5q20 4 48.5 9t41.5 7t31 6.5t25.5 9t16 11.5t11 16.5t2.5 22.5q0 47 -32 63.5t-85 16.5q-124 0 -129 -98h-85q4 90 64 131.5
t155 41.5q137 0 173 -75q49 75 165 75q233 0 233 -296z" />
    <glyph glyph-name="ccedilla" unicode="&#xe7;" horiz-adv-x="537" 
d="M503 351h-88q-10 49 -43 76t-85 27q-44 0 -76.5 -16.5t-50.5 -45.5t-26 -63.5t-8 -76.5q0 -79 37.5 -134t113.5 -55q61 0 97.5 33.5t44.5 92.5h87q-14 -92 -68.5 -144t-144.5 -56l-33 -42l2 -2q10 7 33 7q34 0 59 -19t25 -54q0 -46 -37.5 -67.5t-86.5 -21.5q-40 0 -92 19
l18 44q35 -13 61 -13q24 0 43 7.5t19 23.5q0 13 -13.5 22t-33.5 9q-17 0 -41 -8l-17 28l53 68q-103 8 -159.5 79t-56.5 183q0 122 63 199.5t181 77.5q93 0 153.5 -45t69.5 -133z" />
    <glyph glyph-name="egrave" unicode="&#xe8;" horiz-adv-x="537" 
d="M421 164h84q-17 -85 -75 -130.5t-146 -45.5q-119 0 -181.5 74t-66.5 198q0 116 68.5 192.5t174.5 76.5q53 0 95 -19t68 -49t43 -70t23.5 -79.5t4.5 -78.5h-387q-2 -72 39 -121t122 -49q111 0 134 101zM126 308h297q-3 62 -45 104t-104 42q-64 0 -103.5 -42t-44.5 -104z
M266 588l-131 143h109l86 -143h-64z" />
    <glyph glyph-name="eacute" unicode="&#xe9;" horiz-adv-x="537" 
d="M421 164h84q-17 -85 -75 -130.5t-146 -45.5q-119 0 -181.5 74t-66.5 198q0 116 68.5 192.5t174.5 76.5q53 0 95 -19t68 -49t43 -70t23.5 -79.5t4.5 -78.5h-387q-2 -72 39 -121t122 -49q111 0 134 101zM126 308h297q-3 62 -45 104t-104 42q-64 0 -103.5 -42t-44.5 -104z
M208 588l86 143h109l-131 -143h-64z" />
    <glyph glyph-name="ecircumflex" unicode="&#xea;" horiz-adv-x="537" 
d="M421 164h84q-17 -85 -75 -130.5t-146 -45.5q-119 0 -181.5 74t-66.5 198q0 116 68.5 192.5t174.5 76.5q53 0 95 -19t68 -49t43 -70t23.5 -79.5t4.5 -78.5h-387q-2 -72 39 -121t122 -49q111 0 134 101zM126 308h297q-3 62 -45 104t-104 42q-64 0 -103.5 -42t-44.5 -104z
M119 588l103 143h93l104 -143h-84l-69 96l-70 -96h-77z" />
    <glyph glyph-name="edieresis" unicode="&#xeb;" horiz-adv-x="537" 
d="M421 164h84q-17 -85 -75 -130.5t-146 -45.5q-119 0 -181.5 74t-66.5 198q0 116 68.5 192.5t174.5 76.5q53 0 95 -19t68 -49t43 -70t23.5 -79.5t4.5 -78.5h-387q-2 -72 39 -121t122 -49q111 0 134 101zM126 308h297q-3 62 -45 104t-104 42q-64 0 -103.5 -42t-44.5 -104z
M318 592v104h90v-104h-90zM130 592v104h90v-104h-90z" />
    <glyph glyph-name="igrave" unicode="&#xec;" horiz-adv-x="222" 
d="M154 0h-85v517h85v-517zM108 588l-131 143h109l86 -143h-64z" />
    <glyph glyph-name="iacute" unicode="&#xed;" horiz-adv-x="222" 
d="M154 0h-85v517h85v-517zM50 588l86 143h109l-131 -143h-64z" />
    <glyph glyph-name="icircumflex" unicode="&#xee;" horiz-adv-x="222" 
d="M154 0h-85v517h85v-517zM-39 588l103 143h93l104 -143h-84l-69 96l-70 -96h-77z" />
    <glyph glyph-name="idieresis" unicode="&#xef;" horiz-adv-x="222" 
d="M154 0h-85v517h85v-517zM160 592v104h90v-104h-90zM-28 592v104h90v-104h-90z" />
    <glyph glyph-name="eth" unicode="&#xf0;" horiz-adv-x="574" 
d="M272 506q90 0 139 -56h2q-21 47 -57 89t-65 62l-115 -54l-38 40l109 51q-27 23 -70 48l70 45q72 -52 77 -56l120 56l35 -37l-115 -53q174 -143 174 -383q0 -118 -66 -194t-185 -76t-185 76t-66 194q0 103 63.5 175.5t172.5 72.5zM282 431q-75 0 -115.5 -47t-40.5 -126
q0 -91 46 -143t115 -52t115 52t46 143q0 74 -41.5 123.5t-124.5 49.5z" />
    <glyph glyph-name="ntilde" unicode="&#xf1;" 
d="M64 0v517h80v-82h2q53 94 168 94q96 0 137 -49.5t41 -139.5v-340h-85v350q0 48 -28.5 76t-76.5 28q-75 0 -114 -44.5t-39 -117.5v-292h-85zM400 711h52q-6 -44 -31 -80q-28 -31 -79 -31q-18 0 -66 20q-51 19 -67 19q-18 0 -33.5 -12t-14.5 -30h-52q14 51 38 80.5t67 29.5
q28 0 74 -20t66 -20q33 0 46 44z" />
    <glyph glyph-name="ograve" unicode="&#xf2;" horiz-adv-x="574" 
d="M36 258q0 119 66 195t185 76t185 -76t66 -195q0 -118 -66 -194t-185 -76t-185 76t-66 194zM126 258q0 -91 46 -143t115 -52t115 52t46 143t-46 143.5t-115 52.5t-115 -52.5t-46 -143.5zM284 588l-131 143h109l86 -143h-64z" />
    <glyph glyph-name="oacute" unicode="&#xf3;" horiz-adv-x="574" 
d="M36 258q0 119 66 195t185 76t185 -76t66 -195q0 -118 -66 -194t-185 -76t-185 76t-66 194zM126 258q0 -91 46 -143t115 -52t115 52t46 143t-46 143.5t-115 52.5t-115 -52.5t-46 -143.5zM226 588l86 143h109l-131 -143h-64z" />
    <glyph glyph-name="ocircumflex" unicode="&#xf4;" horiz-adv-x="574" 
d="M36 258q0 119 66 195t185 76t185 -76t66 -195q0 -118 -66 -194t-185 -76t-185 76t-66 194zM126 258q0 -91 46 -143t115 -52t115 52t46 143t-46 143.5t-115 52.5t-115 -52.5t-46 -143.5zM137 588l103 143h93l104 -143h-84l-69 96l-70 -96h-77z" />
    <glyph glyph-name="otilde" unicode="&#xf5;" horiz-adv-x="574" 
d="M36 258q0 119 66 195t185 76t185 -76t66 -195q0 -118 -66 -194t-185 -76t-185 76t-66 194zM126 258q0 -91 46 -143t115 -52t115 52t46 143t-46 143.5t-115 52.5t-115 -52.5t-46 -143.5zM409 711h52q-6 -44 -31 -80q-28 -31 -79 -31q-18 0 -66 20q-51 19 -67 19
q-18 0 -33.5 -12t-14.5 -30h-52q14 51 38 80.5t67 29.5q28 0 74 -20t66 -20q33 0 46 44z" />
    <glyph glyph-name="odieresis" unicode="&#xf6;" horiz-adv-x="574" 
d="M36 258q0 119 66 195t185 76t185 -76t66 -195q0 -118 -66 -194t-185 -76t-185 76t-66 194zM126 258q0 -91 46 -143t115 -52t115 52t46 143t-46 143.5t-115 52.5t-115 -52.5t-46 -143.5zM336 592v104h90v-104h-90zM148 592v104h90v-104h-90z" />
    <glyph glyph-name="divide" unicode="&#xf7;" horiz-adv-x="600" 
d="M48 219v68h504v-68h-504zM236 459q0 26 19 45t45 19t45 -19.5t19 -44.5q0 -24 -19 -44t-44 -20q-26 0 -45.5 19t-19.5 45zM236 47q0 26 19 45t45 19t45 -19.5t19 -44.5q0 -24 -19 -44t-44 -20q-26 0 -45.5 19t-19.5 45z" />
    <glyph glyph-name="oslash" unicode="&#xf8;" horiz-adv-x="574" 
d="M156 137l242 270q-44 47 -111 47q-69 0 -115 -52.5t-46 -143.5q0 -69 30 -121zM420 377l-242 -269q45 -45 109 -45q69 0 115 52t46 143q0 70 -28 119zM540 509l-60 -66q58 -72 58 -185q0 -118 -66 -194t-185 -76q-100 0 -165 57l-60 -67l-28 24l62 69q-60 73 -60 187
q0 119 66 195t185 76q103 0 168 -59l58 65z" />
    <glyph glyph-name="ugrave" unicode="&#xf9;" 
d="M492 517v-517h-80v82h-2q-53 -94 -168 -94q-96 0 -137 49.5t-41 139.5v340h85v-350q0 -47 28.5 -75.5t76.5 -28.5q75 0 114 44.5t39 117.5v292h85zM275 588l-131 143h109l86 -143h-64z" />
    <glyph glyph-name="uacute" unicode="&#xfa;" 
d="M492 517v-517h-80v82h-2q-53 -94 -168 -94q-96 0 -137 49.5t-41 139.5v340h85v-350q0 -47 28.5 -75.5t76.5 -28.5q75 0 114 44.5t39 117.5v292h85zM217 588l86 143h109l-131 -143h-64z" />
    <glyph glyph-name="ucircumflex" unicode="&#xfb;" 
d="M492 517v-517h-80v82h-2q-53 -94 -168 -94q-96 0 -137 49.5t-41 139.5v340h85v-350q0 -47 28.5 -75.5t76.5 -28.5q75 0 114 44.5t39 117.5v292h85zM128 588l103 143h93l104 -143h-84l-69 96l-70 -96h-77z" />
    <glyph glyph-name="udieresis" unicode="&#xfc;" 
d="M492 517v-517h-80v82h-2q-53 -94 -168 -94q-96 0 -137 49.5t-41 139.5v340h85v-350q0 -47 28.5 -75.5t76.5 -28.5q75 0 114 44.5t39 117.5v292h85zM327 592v104h90v-104h-90zM139 592v104h90v-104h-90z" />
    <glyph glyph-name="yacute" unicode="&#xfd;" horiz-adv-x="500" 
d="M492 517l-225 -586q-30 -77 -62 -107.5t-88 -30.5q-35 0 -59 9v78q38 -12 50 -12q45 0 70 47l35 88l-205 514h96l151 -423h2l145 423h90zM189 588l86 143h109l-131 -143h-64z" />
    <glyph glyph-name="thorn" unicode="&#xfe;" horiz-adv-x="593" 
d="M467 263q0 79 -41 135t-119 56q-80 0 -119 -57t-39 -138q0 -84 40.5 -140t122.5 -56q81 0 118 57.5t37 142.5zM152 714v-267h2q20 41 64.5 61.5t100.5 20.5q114 0 176 -78t62 -194t-61.5 -192.5t-174.5 -76.5q-47 0 -94 19.5t-73 61.5h-2v-267h-85v912h85z" />
    <glyph glyph-name="ydieresis" unicode="&#xff;" horiz-adv-x="500" 
d="M492 517l-225 -586q-30 -77 -62 -107.5t-88 -30.5q-35 0 -59 9v78q38 -12 50 -12q45 0 70 47l35 88l-205 514h96l151 -423h2l145 423h90zM299 592v104h90v-104h-90zM111 592v104h90v-104h-90z" />
    <glyph glyph-name="dotlessi" unicode="&#x131;" horiz-adv-x="222" 
d="M154 0h-85v517h85v-517z" />
    <glyph glyph-name="Lslash" unicode="&#x141;" 
d="M78 0v240l-79 -56v76l79 56v398h95v-330l228 160v-76l-228 -160v-228h378v-80h-473z" />
    <glyph glyph-name="lslash" unicode="&#x142;" horiz-adv-x="222" 
d="M69 0v321l-70 -55v71l70 56v321h85v-254l70 56v-71l-70 -56v-389h-85z" />
    <glyph glyph-name="OE" unicode="&#x152;" horiz-adv-x="1074" 
d="M372 63q76 0 127.5 40t51.5 101v301q0 46 -15 69q-22 33 -65 55t-97 22q-116 0 -178.5 -86t-62.5 -214q0 -125 63 -206.5t176 -81.5zM551 0v69h-2q-26 -40 -76.5 -63t-107.5 -23q-154 0 -240.5 105t-86.5 267q0 165 90 270.5t245 105.5q54 0 105 -20t71 -56h2v59h477v-80
h-382v-227h350v-80h-350v-247h388v-80h-483z" />
    <glyph glyph-name="oe" unicode="&#x153;" horiz-adv-x="891" 
d="M864 233h-375q-2 -71 37.5 -120.5t111.5 -49.5q51 0 88 26.5t52 74.5h81q-51 -176 -221 -176q-144 0 -188 102q-44 -102 -179 -102q-116 0 -175.5 76.5t-59.5 194.5q0 119 60 194.5t175 75.5q136 0 179 -91q26 44 76 67.5t107 23.5q123 0 180.5 -83t50.5 -213zM489 308
h285q0 66 -37.5 106t-103.5 40t-105.5 -40.5t-38.5 -105.5zM415 260q0 194 -144 194q-75 0 -110 -59.5t-35 -146.5q0 -75 36 -130t109 -55q54 0 87.5 31t45 72.5t11.5 93.5z" />
    <glyph glyph-name="Scaron" unicode="&#x160;" horiz-adv-x="648" 
d="M581 505h-90q-16 146 -177 146q-68 0 -114 -29t-46 -93q0 -14 3.5 -26.5t12.5 -22t17.5 -17.5t24.5 -15t28 -11.5t33 -10t34.5 -8.5t38 -8t37.5 -8q50 -11 85 -24t70.5 -35.5t54 -59.5t18.5 -87q0 -72 -44 -122t-104.5 -70.5t-130.5 -20.5q-128 0 -211.5 64t-83.5 188h90
q0 -85 60 -128.5t148 -43.5q76 0 128.5 30t52.5 100q0 26 -11.5 46.5t-29 33.5t-46.5 24t-54.5 17t-62.5 14q-16 3 -24 5q-41 9 -68.5 16.5t-60.5 23t-53 34t-33.5 48t-13.5 67.5q0 102 76 155.5t183 53.5q115 0 187 -56.5t76 -169.5zM474 908l-103 -143h-93l-104 143h84
l69 -96l70 96h77z" />
    <glyph glyph-name="scaron" unicode="&#x161;" horiz-adv-x="500" 
d="M31 163h85q2 -53 41 -76.5t98 -23.5q125 0 125 77q0 11 -2.5 20t-9.5 16.5l-12.5 13.5t-18 11t-20.5 8.5t-25 8l-25 6.5t-28 6t-28 6q-37 8 -62.5 17t-52.5 25.5t-40.5 42.5t-13.5 61q0 72 58 109.5t135 37.5q203 0 212 -162h-85q-4 46 -38 66.5t-82 20.5q-46 0 -78 -15
t-32 -51q0 -13 4.5 -23t15.5 -18t21 -14t28.5 -11t31 -8l35 -8t33.5 -8q38 -8 63.5 -17t52 -25.5t40 -42.5t13.5 -62q0 -44 -19 -77t-52 -51t-70 -26.5t-79 -8.5q-95 0 -155 42.5t-64 132.5zM400 731l-103 -143h-93l-104 143h84l69 -96l70 96h77z" />
    <glyph glyph-name="Ydieresis" unicode="&#x178;" horiz-adv-x="648" 
d="M646 714l-273 -422v-292h-95v292l-276 422h113l214 -340l209 340h108zM373 769v104h90v-104h-90zM185 769v104h90v-104h-90z" />
    <glyph glyph-name="Zcaron" unicode="&#x17d;" horiz-adv-x="611" 
d="M22 0v80l444 554h-410v80h522v-80l-443 -554h455v-80h-568zM456 908l-103 -143h-93l-104 143h84l69 -96l70 96h77z" />
    <glyph glyph-name="zcaron" unicode="&#x17e;" horiz-adv-x="480" 
d="M22 0v65l312 377h-292v75h402v-58l-316 -384h330v-75h-436zM390 731l-103 -143h-93l-104 143h84l69 -96l70 96h77z" />
    <glyph glyph-name="florin" unicode="&#x192;" 
d="M492 714l-14 -75h-59q-50 0 -62 -52l-31 -138h102l-14 -68h-100l-55 -311q-24 -135 -65 -185t-125 -50h-66l14 75q80 0 103 17t36 85l70 369h-92l13 68h91l26 136q12 59 52 94t102 35h74z" />
    <glyph glyph-name="circumflex" unicode="&#x2c6;" horiz-adv-x="222" 
d="M-39 588l103 143h93l104 -143h-84l-69 96l-70 -96h-77z" />
    <glyph glyph-name="caron" unicode="&#x2c7;" horiz-adv-x="222" 
d="M261 731l-103 -143h-93l-104 143h84l69 -96l70 96h77z" />
    <glyph glyph-name="uni02C9" unicode="&#x2c9;" horiz-adv-x="222" 
d="M-59 620v55h341v-55h-341z" />
    <glyph glyph-name="breve" unicode="&#x2d8;" horiz-adv-x="222" 
d="M-45 731h50q24 -83 112 -83q40 0 61 20t38 63h51q-11 -65 -52 -101.5t-106 -36.5q-134 0 -154 138z" />
    <glyph glyph-name="dotaccent" unicode="&#x2d9;" horiz-adv-x="222" 
d="M156 696v-104h-90v104h90z" />
    <glyph glyph-name="ring" unicode="&#x2da;" horiz-adv-x="222" 
d="M43 662q0 -28 19.5 -48t48.5 -20t48.5 20t19.5 48t-19.5 48t-48.5 20t-48.5 -20t-19.5 -48zM-2 662q0 46 33 79.5t80 33.5t80 -33.5t33 -79.5t-33 -79.5t-80 -33.5t-80 33.5t-33 79.5z" />
    <glyph glyph-name="ogonek" unicode="&#x2db;" horiz-adv-x="222" 
d="M190 3h40q-86 -71 -86 -121q0 -17 9.5 -29.5t28.5 -12.5q38 0 62 30l32 -18q-36 -62 -108 -62q-92 0 -92 82q0 13 6 28.5t34 45t74 57.5z" />
    <glyph glyph-name="tilde" unicode="&#x2dc;" horiz-adv-x="222" 
d="M233 711h52q-6 -44 -31 -80q-28 -31 -79 -31q-18 0 -66 20q-51 19 -67 19q-18 0 -33.5 -12t-14.5 -30h-52q14 51 38 80.5t67 29.5q28 0 74 -20t66 -20q33 0 46 44z" />
    <glyph glyph-name="hungarumlaut" unicode="&#x2dd;" horiz-adv-x="222" 
d="M-48 588l81 143h105l-120 -143h-66zM108 588l81 143h105l-120 -143h-66z" />
    <glyph glyph-name="uni03A9" unicode="&#x3a9;" horiz-adv-x="719" 
d="M196 66v2q-58 52 -96 131t-38 176q0 144 85.5 237.5t214.5 93.5q131 0 212.5 -97t81.5 -230q0 -99 -39.5 -181t-96.5 -130v-2h149v-66h-242v48q63 41 105.5 123t42.5 193q0 107 -57.5 191t-156.5 84q-98 0 -158 -79.5t-60 -198.5q0 -105 43.5 -190t103.5 -123v-48h-242
v66h148z" />
    <glyph glyph-name="uni03BC" unicode="&#x3bc;" 
d="M492 517v-517h-80v82h-2q-53 -94 -168 -94q-67 0 -91 38h-2v-224h-85v715h85v-350q0 -47 28.5 -75.5t76.5 -28.5q75 0 114 44.5t39 117.5v292h85z" />
    <glyph glyph-name="pi" unicode="&#x3c0;" horiz-adv-x="573" 
d="M547 449h-80v-302q0 -93 14 -147h-77q-17 29 -17 140v309h-177q-5 -107 -25.5 -245t-46.5 -204h-79q27 77 47.5 210.5t24.5 238.5q-74 0 -110 -12l-12 53q42 27 145 27h400z" />
    <glyph glyph-name="uni2010" unicode="&#x2010;" horiz-adv-x="389" 
d="M50 238v80h289v-80h-289z" />
    <glyph glyph-name="endash" unicode="&#x2013;" horiz-adv-x="500" 
d="M0 238v80h500v-80h-500z" />
    <glyph glyph-name="emdash" unicode="&#x2014;" horiz-adv-x="1000" 
d="M130 238v80h740v-80h-740z" />
    <glyph glyph-name="quoteleft" unicode="&#x2018;" horiz-adv-x="278" 
d="M195 567v-111h-111v111q0 64 27.5 105.5t82.5 41.5v-50q-31 0 -44.5 -28.5t-13.5 -68.5h59z" />
    <glyph glyph-name="quoteright" unicode="&#x2019;" horiz-adv-x="278" 
d="M83 603v111h111v-111q0 -64 -27.5 -105.5t-82.5 -41.5v50q31 0 44.5 28.5t13.5 68.5h-59z" />
    <glyph glyph-name="quotesinglbase" unicode="&#x201a;" horiz-adv-x="278" 
d="M83 0v111h111v-111q0 -64 -27.5 -105.5t-82.5 -41.5v50q31 0 44.5 28.5t13.5 68.5h-59z" />
    <glyph glyph-name="quotedblleft" unicode="&#x201c;" horiz-adv-x="426" 
d="M360 567v-111h-111v111q0 64 27.5 105.5t82.5 41.5v-50q-31 0 -44.5 -28.5t-13.5 -68.5h59zM177 567v-111h-111v111q0 64 27.5 105.5t82.5 41.5v-50q-31 0 -44.5 -28.5t-13.5 -68.5h59z" />
    <glyph glyph-name="quotedblright" unicode="&#x201d;" horiz-adv-x="426" 
d="M249 603v111h111v-111q0 -64 -27.5 -105.5t-82.5 -41.5v50q31 0 44.5 28.5t13.5 68.5h-59zM66 603v111h111v-111q0 -64 -27.5 -105.5t-82.5 -41.5v50q31 0 44.5 28.5t13.5 68.5h-59z" />
    <glyph glyph-name="quotedblbase" unicode="&#x201e;" horiz-adv-x="426" 
d="M66 0v111h111v-111q0 -64 -27.5 -105.5t-82.5 -41.5v50q31 0 44.5 28.5t13.5 68.5h-59zM249 0v111h111v-111q0 -64 -27.5 -105.5t-82.5 -41.5v50q31 0 44.5 28.5t13.5 68.5h-59z" />
    <glyph glyph-name="dagger" unicode="&#x2020;" 
d="M236 -155v597h-194v75h194v197h80v-197h198v-75h-198v-597h-80z" />
    <glyph glyph-name="daggerdbl" unicode="&#x2021;" 
d="M236 -155v197h-194v75h194v325h-194v75h194v197h80v-197h198v-75h-198v-325h198v-75h-198v-197h-80z" />
    <glyph glyph-name="bullet" unicode="&#x2022;" horiz-adv-x="500" 
d="M72 357q0 74 52 126t126 52t126.5 -52t52.5 -126t-52.5 -126.5t-126.5 -52.5t-126 52.5t-52 126.5z" />
    <glyph glyph-name="ellipsis" unicode="&#x2026;" horiz-adv-x="1000" 
d="M111 0v111h111v-111h-111zM444 0v111h111v-111h-111zM777 0v111h111v-111h-111z" />
    <glyph glyph-name="perthousand" unicode="&#x2030;" horiz-adv-x="1148" 
d="M72 535q0 79 35.5 126.5t112.5 47.5q76 0 111 -45.5t35 -123.5q0 -77 -40 -127q-35 -45 -108 -45q-74 0 -110 45.5t-36 121.5zM147 538q0 -115 72 -115q40 0 56 34t16 80q0 26 -4.5 50t-21 45.5t-42.5 21.5q-41 0 -58.5 -34.5t-17.5 -81.5zM437 155q0 79 35.5 126.5
t112.5 47.5q76 0 111 -45.5t35 -123.5q0 -77 -40 -127q-35 -45 -108 -45q-74 0 -110 45.5t-36 121.5zM512 158q0 -115 72 -115q40 0 56 34t16 80q0 26 -4.5 50t-21 45.5t-42.5 21.5q-41 0 -58.5 -34.5t-17.5 -81.5zM782 155q0 79 35.5 126.5t112.5 47.5q76 0 111 -45.5
t35 -123.5q0 -77 -40 -127q-35 -45 -108 -45q-74 0 -110 45.5t-36 121.5zM857 158q0 -115 72 -115q40 0 56 34t16 80q0 26 -4.5 50t-21 45.5t-42.5 21.5q-41 0 -58.5 -34.5t-17.5 -81.5zM90 -22l538 744h85l-537 -744h-86z" />
    <glyph glyph-name="guilsinglleft" unicode="&#x2039;" horiz-adv-x="259" 
d="M202 114l-152 120v88l152 120v-86l-100 -78l100 -78v-86z" />
    <glyph glyph-name="guilsinglright" unicode="&#x203a;" horiz-adv-x="259" 
d="M57 442l152 -120v-88l-152 -120v86l100 78l-100 78v86z" />
    <glyph glyph-name="fraction" unicode="&#x2044;" horiz-adv-x="167" 
d="M-166 -28l435 753h64l-435 -753h-64z" />
    <glyph glyph-name="Euro" unicode="&#x20ac;" 
d="M558 662l-46 -83q-70 69 -143 69q-75 0 -124 -64q-39 -51 -56 -134h283l-27 -61h-263q-1 -11 -1 -31q0 -15 1 -21h249l-26 -61h-218q33 -215 190 -215q48 0 85 19q27 14 69 53v-105q-68 -44 -154 -44q-245 0 -287 292h-77l27 61h46q-1 7 -1 20q0 23 1 32h-73l26 61h54
q24 123 91 194q75 81 193 81q91 0 181 -63z" />
    <glyph glyph-name="afii61289" unicode="&#x2113;" horiz-adv-x="487" 
d="M427 153l37 -34q-67 -126 -188 -126q-81 0 -122 51t-45 130v13l-57 -46l-24 46q66 55 80 68v270q0 125 45 183t111 58q62 0 94 -45.5t32 -117.5q0 -163 -206 -364l1 -33q0 -75 30.5 -112.5t76.5 -37.5q43 0 78 28.5t57 68.5zM184 531v-214q151 165 151 285q0 104 -70 104
q-32 0 -56.5 -42t-24.5 -133z" />
    <glyph glyph-name="trademark" unicode="&#x2122;" horiz-adv-x="990" 
d="M390 714v-55h-129v-357h-68v357h-129v55h326zM927 714v-412h-68v344h-2l-135 -344h-43l-135 344h-2v-344h-68v412h105l123 -313l121 313h104z" />
    <glyph glyph-name="Omega" unicode="&#x2126;" horiz-adv-x="719" 
d="M196 66v2q-58 52 -96 131t-38 176q0 144 85.5 237.5t214.5 93.5q131 0 212.5 -97t81.5 -230q0 -99 -39.5 -181t-96.5 -130v-2h149v-66h-242v48q63 41 105.5 123t42.5 193q0 107 -57.5 191t-156.5 84q-98 0 -158 -79.5t-60 -198.5q0 -105 43.5 -190t103.5 -123v-48h-242
v66h148z" />
    <glyph glyph-name="estimated" unicode="&#x212e;" horiz-adv-x="869" 
d="M835 338h-649q-5 0 -5 -4v-196q0 -12 8 -23q103 -106 246 -106q75 0 142 32t116 87h57q-54 -64 -137.5 -101.5t-178.5 -37.5q-166 0 -283 105t-117 254t117 255t283 106t283.5 -106t117.5 -255v-10zM687 364v197q0 13 -9 24q-104 102 -243 102q-142 0 -245 -105
q-9 -10 -9 -25v-193q0 -6 5 -6h497q4 0 4 6z" />
    <glyph glyph-name="partialdiff" unicode="&#x2202;" horiz-adv-x="548" 
d="M102 666l-27 58q69 56 168 56q107 0 181 -98t74 -279t-69 -296t-194 -115q-92 0 -142.5 69.5t-50.5 161.5q0 113 62.5 183.5t149.5 70.5q61 0 103.5 -31t60.5 -63h1q1 11 1 42q0 126 -53.5 207.5t-131.5 81.5q-74 0 -133 -48zM242 59h1q66 0 111 72.5t56 174.5
q-14 38 -52 72t-90 34q-61 0 -104 -56t-43 -133q0 -72 33.5 -118t87.5 -46z" />
    <glyph glyph-name="Delta" unicode="&#x2206;" horiz-adv-x="647" 
d="M31 0v53l248 660h93l245 -659v-54h-586zM112 65h419l-142 372q-8 25 -33 93t-32 92h-4q-5 -21 -29 -86.5l-30 -82.5z" />
    <glyph glyph-name="product" unicode="&#x220f;" horiz-adv-x="701" 
d="M674 622h-109v-718h-78v718h-274v-718h-79v718h-108v72h648v-72z" />
    <glyph glyph-name="summation" unicode="&#x2211;" horiz-adv-x="554" 
d="M531 -96h-508v53l266 341l-255 341v55h481v-68h-371v-4l236 -312l-255 -328v-3h406v-75z" />
    <glyph glyph-name="minus" unicode="&#x2212;" horiz-adv-x="600" 
d="M48 219v68h504v-68h-504z" />
    <glyph glyph-name="uni2215" unicode="&#x2215;" horiz-adv-x="167" 
d="M-166 -28l435 753h64l-435 -753h-64z" />
    <glyph glyph-name="uni2219" unicode="&#x2219;" horiz-adv-x="278" 
d="M75 311q0 26 19 45t45 19q25 0 44.5 -19.5t19.5 -44.5q0 -24 -19.5 -44t-43.5 -20q-26 0 -45.5 19t-19.5 45z" />
    <glyph glyph-name="radical" unicode="&#x221a;" horiz-adv-x="573" 
d="M574 826l-222 -974h-70l-158 459l-75 -28l-15 48l139 54l125 -366q10 -35 18 -72l1 -1q3 19 14 74l184 806h59z" />
    <glyph glyph-name="infinity" unicode="&#x221e;" horiz-adv-x="774" 
d="M724 289v-1q0 -71 -45.5 -115.5t-107.5 -44.5q-45 0 -86.5 28t-96.5 90q-49 -57 -91 -87.5t-97 -30.5q-62 0 -106 45t-44 111q0 69 44.5 114t112.5 45q51 0 94.5 -31t90.5 -87q25 27 31.5 35t30 29.5t38 29.5t38.5 16t48 8q65 0 105.5 -43t40.5 -111zM207 177h1
q13 0 25.5 3t26 11l21.5 12.5t23 19l19 18.5t20.5 22t17.5 19q-24 30 -35 42.5t-33.5 33.5t-44.5 29.5t-47 8.5q-45 0 -72 -33t-27 -80q0 -44 29.5 -75t75.5 -31zM573 396h-2q-19 0 -37 -7t-36.5 -22t-29 -25t-28.5 -30.5t-22 -24.5q54 -61 86.5 -85.5t69.5 -24.5
q45 0 71.5 32.5t26.5 74.5q0 52 -27.5 82t-71.5 30z" />
    <glyph glyph-name="integral" unicode="&#x222b;" horiz-adv-x="361" 
d="M343 836l-13 -55q-16 10 -36 10q-32 0 -50 -24q-34 -39 -34 -176q0 -78 7 -247t7 -251q0 -137 -42 -201q-32 -53 -102 -53q-39 0 -66 16l13 58q27 -12 45 -12q30 0 46 22q34 44 34 170q0 83 -7 255t-7 250q0 83 12.5 132t41.5 80q37 40 96 40q29 0 55 -14z" />
    <glyph glyph-name="approxequal" unicode="&#x2248;" horiz-adv-x="561" 
d="M483 431l32 -28q-50 -96 -129 -96q-28 0 -51.5 9t-65.5 33q-59 34 -93 34q-31 0 -52.5 -19t-45.5 -55l-33 27q23 45 59 70.5t79 25.5q17 0 35 -5t27.5 -9t27.5 -14.5t21 -11.5q3 -2 14 -8l14.5 -8t12 -6t13 -5.5l12 -4t14 -3t14.5 -0.5q29 0 51 18t44 56zM483 259l32 -28
q-50 -95 -129 -95q-28 0 -51.5 9t-65.5 33q-59 34 -92 34q-23 0 -42 -12t-30.5 -25.5t-26.5 -37.5l-33 28q23 44 59 70t79 26q17 0 35 -5t27.5 -9t27.5 -14.5t21 -11.5q3 -2 15.5 -8.5t16 -8.5t13.5 -7t16 -6.5t15 -3t18 -1.5q29 0 50.5 17.5t44.5 55.5z" />
    <glyph glyph-name="notequal" unicode="&#x2260;" horiz-adv-x="561" 
d="M399 503l-44 -97h155v-51h-175l-67 -145h242v-51h-262l-54 -117l-40 18l45 99h-148v51h169l66 145h-235v51h255l53 115z" />
    <glyph glyph-name="lessequal" unicode="&#x2264;" horiz-adv-x="561" 
d="M507 96l-451 224v54l451 224v-61l-397 -188v-2l397 -191v-60zM510 3h-459v52h459v-52z" />
    <glyph glyph-name="greaterequal" unicode="&#x2265;" horiz-adv-x="561" 
d="M57 598l451 -224v-54l-451 -224v60l396 190v2l-396 189v61zM509 3h-457v52h457v-52z" />
    <glyph glyph-name="lozenge" unicode="&#x25ca;" horiz-adv-x="573" 
d="M519 347l-202 -393h-64l-199 393l201 393h65zM446 345l-140 275q-13 31 -19 53h-2q-10 -32 -20 -53l-139 -271l141 -278q12 -26 18 -51h3q5 22 18 50z" />
    <glyph glyph-name="fi" unicode="&#xfb01;" horiz-adv-x="518" 
d="M99 0v442h-87v75h87v77q0 63 36.5 95.5t106.5 32.5q29 0 55 -8v-74q-21 7 -48 7q-33 0 -49 -13t-16 -45v-72h100v-75h-100v-442h-85zM450 610h-85v104h85v-104zM450 0h-85v517h85v-517z" />
    <glyph glyph-name="fl" unicode="&#xfb02;" horiz-adv-x="518" 
d="M99 0v442h-87v75h87v77q0 63 36.5 95.5t106.5 32.5q29 0 55 -8v-74q-21 7 -48 7q-33 0 -49 -13t-16 -45v-72h100v-75h-100v-442h-85zM365 0v714h85v-714h-85z" />
    <glyph glyph-name="a.superior" horiz-adv-x="378" 
d="M317 622v-160q0 -32 14 -32q15 0 22 2v-44q-21 -8 -43 -8q-48 0 -51 46q-44 -46 -117 -46q-51 0 -84 22.5t-33 66.5q0 87 120 99q72 8 93.5 15.5t21.5 26.5q0 30 -20.5 39.5t-56.5 9.5q-80 0 -83 -56h-60q3 54 43.5 80t103.5 26q130 0 130 -87zM155 430q51 0 76.5 21
t25.5 48v47q-15 -9 -100 -23q-31 -5 -47.5 -16.5t-16.5 -35.5q0 -41 62 -41z" />
    <glyph glyph-name="o.superior" horiz-adv-x="384" 
d="M192 709q79 0 123 -46.5t44 -119.5q0 -74 -43 -118.5t-123 -44.5q-78 0 -123 45t-45 118t44 119.5t123 46.5zM192 659q-43 0 -71 -29.5t-28 -86.5q0 -49 24.5 -81t75.5 -32q50 0 74 31.5t24 80.5q0 65 -29 91t-70 26z" />
    <glyph glyph-name="one.superior" horiz-adv-x="333" 
d="M249 709v-429h-68v308h-115v50q118 2 133 71h50z" />
    <glyph glyph-name="two.superior" horiz-adv-x="333" 
d="M90 555h-68q0 69 42 111.5t111 42.5q63 0 105.5 -34t42.5 -92q0 -27 -9 -49t-27.5 -40t-34.5 -29.5t-42 -26.5l-32.5 -19t-35 -21t-26 -18t-24 -22.5t-10.5 -22.5h235v-55h-303q2 48 21.5 82.5t41.5 51.5t62 40q66 38 91 63.5t25 66.5q0 31 -24 50.5t-59 19.5
q-42 0 -62 -28t-20 -71z" />
    <glyph glyph-name="three.superior" horiz-adv-x="333" 
d="M132 477v50h24q36 0 59.5 16t23.5 49q0 29 -21.5 45.5t-55.5 16.5q-39 0 -59.5 -24t-20.5 -62h-68q4 65 43 103t105 38q64 0 104.5 -30.5t40.5 -86.5q0 -27 -19.5 -50t-48.5 -35v-2q42 -8 64.5 -35.5t22.5 -66.5q0 -62 -47.5 -96t-114.5 -34q-70 0 -115 37t-45 104h68
q1 -41 25 -63.5t67 -22.5q39 0 66.5 19.5t27.5 52.5q0 39 -27 58t-66 19h-33z" />
    <hkern u1="T" u2="&#x161;" k="28" />
    <hkern u1="T" u2="&#xfc;" k="46" />
    <hkern u1="T" u2="&#xf6;" k="56" />
    <hkern u1="T" u2="&#xf2;" k="56" />
    <hkern u1="T" u2="&#xeb;" k="56" />
    <hkern u1="T" u2="&#xea;" k="83" />
    <hkern u1="T" u2="&#xe8;" k="83" />
    <hkern u1="T" u2="&#xe5;" k="56" />
    <hkern u1="T" u2="&#xe4;" k="28" />
    <hkern u1="T" u2="&#xe3;" k="56" />
    <hkern u1="T" u2="&#xe2;" k="56" />
    <hkern u1="T" u2="&#xe0;" k="56" />
    <hkern u1="V" u2="&#xf6;" k="28" />
    <hkern u1="V" u2="&#xf4;" k="41" />
    <hkern u1="V" u2="&#xee;" k="-4" />
    <hkern u1="V" u2="&#xeb;" k="28" />
    <hkern u1="V" u2="&#xea;" k="28" />
    <hkern u1="V" u2="&#xe8;" k="28" />
    <hkern u1="V" u2="&#xe5;" k="28" />
    <hkern u1="V" u2="&#xe4;" k="28" />
    <hkern u1="V" u2="&#xe3;" k="28" />
    <hkern u1="V" u2="&#xe2;" k="28" />
    <hkern u1="V" u2="&#xe0;" k="28" />
    <hkern u1="W" u2="&#xfc;" k="14" />
    <hkern u1="W" u2="&#xf6;" k="43" />
    <hkern u1="W" u2="&#xea;" k="43" />
    <hkern u1="W" u2="&#xe4;" k="28" />
    <hkern u1="Y" u2="&#xfc;" k="56" />
    <hkern u1="Y" u2="&#xf6;" k="83" />
    <hkern u1="&#x2018;" u2="&#x2018;" k="95" />
    <hkern u1="&#x2019;" u2="&#x2019;" k="95" />
    <hkern g1="f"
	g2="s,scaron"
	k="-18" />
    <hkern g1="f"
	g2="u,ugrave,uacute,ucircumflex,udieresis"
	k="18" />
    <hkern g1="F"
	g2="quoteright"
	k="-18" />
    <hkern g1="F"
	g2="f,germandbls,fi,fl,f_i,f_l"
	k="18" />
    <hkern g1="L,Lslash"
	g2="colon"
	k="55" />
    <hkern g1="L,Lslash"
	g2="semicolon"
	k="157" />
    <hkern g1="L,Lslash"
	g2="i,igrave,iacute,icircumflex,idieresis,dotlessi"
	k="157" />
    <hkern g1="P"
	g2="A,Agrave,Aacute,Acircumflex,Atilde,Adieresis,Aring,AE"
	k="55" />
    <hkern g1="P"
	g2="comma"
	k="157" />
    <hkern g1="P"
	g2="period"
	k="157" />
    <hkern g1="r"
	g2="g"
	k="92" />
    <hkern g1="r"
	g2="o,ograve,oacute,ocircumflex,otilde,odieresis,oslash,oe"
	k="92" />
    <hkern g1="r"
	g2="hyphen"
	k="55" />
    <hkern g1="r"
	g2="a,agrave,aacute,acircumflex,atilde,adieresis,aring,ae"
	k="37" />
    <hkern g1="r"
	g2="r"
	k="111" />
    <hkern g1="r"
	g2="s,scaron"
	k="74" />
    <hkern g1="R"
	g2="T"
	k="92" />
    <hkern g1="R"
	g2="V"
	k="92" />
    <hkern g1="R"
	g2="W"
	k="55" />
    <hkern g1="R"
	g2="y,yacute,ydieresis"
	k="37" />
    <hkern g1="R"
	g2="Y,Yacute,Ydieresis"
	k="111" />
    <hkern g1="R"
	g2="quoteright"
	k="74" />
    <hkern g1="T"
	g2="colon"
	k="74" />
    <hkern g1="T"
	g2="semicolon"
	k="179" />
    <hkern g1="T"
	g2="i,igrave,iacute,icircumflex,idieresis,dotlessi"
	k="179" />
    <hkern g1="v"
	g2="A,Agrave,Aacute,Acircumflex,Atilde,Adieresis,Aring,AE"
	k="74" />
    <hkern g1="v"
	g2="comma"
	k="179" />
    <hkern g1="v"
	g2="period"
	k="179" />
    <hkern g1="V"
	g2="semicolon"
	k="92" />
    <hkern g1="V"
	g2="i,igrave,iacute,icircumflex,idieresis,dotlessi"
	k="92" />
    <hkern g1="V"
	g2="p"
	k="18" />
    <hkern g1="V"
	g2="t"
	k="18" />
    <hkern g1="w"
	g2="comma"
	k="92" />
    <hkern g1="w"
	g2="period"
	k="92" />
    <hkern g1="w"
	g2="c,ccedilla"
	k="18" />
    <hkern g1="w"
	g2="d"
	k="18" />
    <hkern g1="w"
	g2="e,egrave,eacute,ecircumflex,edieresis"
	k="18" />
    <hkern g1="w"
	g2="g"
	k="28" />
    <hkern g1="w"
	g2="n,ntilde"
	k="-18" />
    <hkern g1="w"
	g2="o,ograve,oacute,ocircumflex,otilde,odieresis,oslash,oe"
	k="18" />
    <hkern g1="w"
	g2="q"
	k="18" />
    <hkern g1="w"
	g2="hyphen"
	k="55" />
    <hkern g1="W"
	g2="T"
	k="28" />
    <hkern g1="W"
	g2="v"
	k="-18" />
    <hkern g1="W"
	g2="V"
	k="18" />
    <hkern g1="W"
	g2="w"
	k="18" />
    <hkern g1="W"
	g2="W"
	k="55" />
    <hkern g1="W"
	g2="g"
	k="18" />
    <hkern g1="W"
	g2="o,ograve,oacute,ocircumflex,otilde,odieresis,oslash,oe"
	k="18" />
    <hkern g1="W"
	g2="hyphen"
	k="18" />
    <hkern g1="W"
	g2="r"
	k="37" />
    <hkern g1="y,yacute,ydieresis"
	g2="T"
	k="18" />
    <hkern g1="y,yacute,ydieresis"
	g2="V"
	k="18" />
    <hkern g1="y,yacute,ydieresis"
	g2="W"
	k="18" />
    <hkern g1="y,yacute,ydieresis"
	g2="Y,Yacute,Ydieresis"
	k="37" />
    <hkern g1="Y,Yacute,Ydieresis"
	g2="q"
	k="111" />
    <hkern g1="Y,Yacute,Ydieresis"
	g2="a,agrave,aacute,acircumflex,atilde,adieresis,aring,ae"
	k="111" />
    <hkern g1="Y,Yacute,Ydieresis"
	g2="colon"
	k="92" />
    <hkern g1="Y,Yacute,Ydieresis"
	g2="semicolon"
	k="111" />
    <hkern g1="Y,Yacute,Ydieresis"
	g2="i,igrave,iacute,icircumflex,idieresis,dotlessi"
	k="111" />
    <hkern g1="Y,Yacute,Ydieresis"
	g2="p"
	k="111" />
    <hkern g1="quoteright"
	g2="w"
	k="111" />
    <hkern g1="quoteright"
	g2="y,yacute,ydieresis"
	k="111" />
    <hkern g1="quoteright"
	g2="A,Agrave,Aacute,Acircumflex,Atilde,Adieresis,Aring,AE"
	k="92" />
    <hkern g1="quoteright"
	g2="comma"
	k="111" />
    <hkern g1="quoteright"
	g2="period"
	k="111" />
    <hkern g1="quoteright"
	g2="c,ccedilla"
	k="111" />
    <hkern g1="quoteright"
	g2="e,egrave,eacute,ecircumflex,edieresis"
	k="111" />
    <hkern g1="quoteright"
	g2="o,ograve,oacute,ocircumflex,otilde,odieresis,oslash,oe"
	k="111" />
    <hkern g1="quoteright"
	g2="hyphen"
	k="129" />
    <hkern g1="quoteright"
	g2="a,agrave,aacute,acircumflex,atilde,adieresis,aring,ae"
	k="111" />
    <hkern g1="quoteright"
	g2="r"
	k="92" />
    <hkern g1="quoteright"
	g2="s,scaron"
	k="111" />
    <hkern g1="quoteright"
	g2="u,ugrave,uacute,ucircumflex,udieresis"
	k="92" />
    <hkern g1="quoteright"
	g2="colon"
	k="111" />
    <hkern g1="quoteright"
	g2="semicolon"
	k="111" />
  </font>
</defs></svg>
